%YAML 1.1
%TAG !u! tag:unity3d.com,2011:
--- !u!1001 &8507698608036407394
PrefabInstance:
  m_ObjectHideFlags: 0
  serializedVersion: 2
  m_Modification:
    m_TransformParent: {fileID: 0}
    m_Modifications:
    - target: {fileID: 189249646802558190, guid: a5883246fafd54c44a2ed0273c2b1894, type: 3}
      propertyPath: m_Materials.Array.data[0]
      value: 
      objectReference: {fileID: 2100000, guid: e368481ffd59f014283c07d09775161d, type: 2}
    - target: {fileID: 189249647171777623, guid: a5883246fafd54c44a2ed0273c2b1894, type: 3}
      propertyPath: m_Materials.Array.data[0]
      value: 
      objectReference: {fileID: 2100000, guid: e368481ffd59f014283c07d09775161d, type: 2}
    - target: {fileID: 189249647177412529, guid: a5883246fafd54c44a2ed0273c2b1894, type: 3}
      propertyPath: m_Materials.Array.data[0]
      value: 
      objectReference: {fileID: 2100000, guid: e368481ffd59f014283c07d09775161d, type: 2}
    - target: {fileID: 189249647458233106, guid: a5883246fafd54c44a2ed0273c2b1894, type: 3}
      propertyPath: m_Materials.Array.data[0]
      value: 
      objectReference: {fileID: 2100000, guid: e368481ffd59f014283c07d09775161d, type: 2}
    - target: {fileID: 189249647469274146, guid: a5883246fafd54c44a2ed0273c2b1894, type: 3}
      propertyPath: m_Materials.Array.data[0]
      value: 
      objectReference: {fileID: 2100000, guid: e368481ffd59f014283c07d09775161d, type: 2}
    - target: {fileID: 189249647731487658, guid: a5883246fafd54c44a2ed0273c2b1894, type: 3}
      propertyPath: m_Materials.Array.data[0]
      value: 
      objectReference: {fileID: 2100000, guid: e368481ffd59f014283c07d09775161d, type: 2}
    - target: {fileID: 189249647805580512, guid: a5883246fafd54c44a2ed0273c2b1894, type: 3}
      propertyPath: m_Materials.Array.data[0]
      value: 
      objectReference: {fileID: 2100000, guid: e368481ffd59f014283c07d09775161d, type: 2}
    - target: {fileID: 189249648130873343, guid: a5883246fafd54c44a2ed0273c2b1894, type: 3}
      propertyPath: m_Materials.Array.data[0]
      value: 
      objectReference: {fileID: 2100000, guid: e368481ffd59f014283c07d09775161d, type: 2}
    - target: {fileID: 452441205182672729, guid: a5883246fafd54c44a2ed0273c2b1894, type: 3}
      propertyPath: m_Materials.Array.data[0]
      value: 
      objectReference: {fileID: 2100000, guid: 81c7ae2386b1abf40828c9c2bb29720d, type: 2}
    - target: {fileID: 452441205222086146, guid: a5883246fafd54c44a2ed0273c2b1894, type: 3}
      propertyPath: m_Materials.Array.data[0]
      value: 
      objectReference: {fileID: 2100000, guid: 81c7ae2386b1abf40828c9c2bb29720d, type: 2}
    - target: {fileID: 452441205279668804, guid: a5883246fafd54c44a2ed0273c2b1894, type: 3}
      propertyPath: m_Materials.Array.data[0]
      value: 
      objectReference: {fileID: 2100000, guid: 983243ead81870c46a81ba94f21940c6, type: 2}
    - target: {fileID: 452441205563336915, guid: a5883246fafd54c44a2ed0273c2b1894, type: 3}
      propertyPath: m_Materials.Array.data[0]
      value: 
      objectReference: {fileID: 2100000, guid: 81c7ae2386b1abf40828c9c2bb29720d, type: 2}
    - target: {fileID: 452441205708884093, guid: a5883246fafd54c44a2ed0273c2b1894, type: 3}
      propertyPath: m_Materials.Array.data[0]
      value: 
      objectReference: {fileID: 2100000, guid: 81c7ae2386b1abf40828c9c2bb29720d, type: 2}
    - target: {fileID: 452441206655347134, guid: a5883246fafd54c44a2ed0273c2b1894, type: 3}
      propertyPath: m_Materials.Array.data[0]
      value: 
      objectReference: {fileID: 2100000, guid: 81c7ae2386b1abf40828c9c2bb29720d, type: 2}
    - target: {fileID: 452441206718902370, guid: a5883246fafd54c44a2ed0273c2b1894, type: 3}
      propertyPath: m_Materials.Array.data[0]
      value: 
      objectReference: {fileID: 2100000, guid: 81c7ae2386b1abf40828c9c2bb29720d, type: 2}
    - target: {fileID: 452441207183558045, guid: a5883246fafd54c44a2ed0273c2b1894, type: 3}
      propertyPath: m_Materials.Array.data[0]
      value: 
      objectReference: {fileID: 2100000, guid: 81c7ae2386b1abf40828c9c2bb29720d, type: 2}
    - target: {fileID: 745351717513644684, guid: a5883246fafd54c44a2ed0273c2b1894, type: 3}
      propertyPath: m_Name
      value: MuseumMaterials
      objectReference: {fileID: 0}
    - target: {fileID: 1419081186744277413, guid: a5883246fafd54c44a2ed0273c2b1894, type: 3}
      propertyPath: m_Materials.Array.data[0]
      value: 
      objectReference: {fileID: 2100000, guid: 81c7ae2386b1abf40828c9c2bb29720d, type: 2}
    - target: {fileID: 1419081186744277413, guid: a5883246fafd54c44a2ed0273c2b1894, type: 3}
      propertyPath: m_Materials.Array.data[1]
      value: 
      objectReference: {fileID: 2100000, guid: e368481ffd59f014283c07d09775161d, type: 2}
    - target: {fileID: 1419081186829979290, guid: a5883246fafd54c44a2ed0273c2b1894, type: 3}
      propertyPath: m_Materials.Array.data[0]
      value: 
      objectReference: {fileID: 2100000, guid: 983243ead81870c46a81ba94f21940c6, type: 2}
    - target: {fileID: 1419081186829979290, guid: a5883246fafd54c44a2ed0273c2b1894, type: 3}
      propertyPath: m_Materials.Array.data[1]
      value: 
      objectReference: {fileID: 2100000, guid: e368481ffd59f014283c07d09775161d, type: 2}
    - target: {fileID: 1419081187145937212, guid: a5883246fafd54c44a2ed0273c2b1894, type: 3}
      propertyPath: m_Materials.Array.data[1]
      value: 
      objectReference: {fileID: 2100000, guid: e368481ffd59f014283c07d09775161d, type: 2}
    - target: {fileID: 1419081187665715508, guid: a5883246fafd54c44a2ed0273c2b1894, type: 3}
      propertyPath: m_Materials.Array.data[1]
      value: 
      objectReference: {fileID: 2100000, guid: e368481ffd59f014283c07d09775161d, type: 2}
    - target: {fileID: 1725811017602512692, guid: a5883246fafd54c44a2ed0273c2b1894, type: 3}
      propertyPath: m_Materials.Array.data[0]
      value: 
      objectReference: {fileID: 2100000, guid: a05ee0b9de0a79e4b83597d99bf5dd5b, type: 2}
    - target: {fileID: 1725811017890740900, guid: a5883246fafd54c44a2ed0273c2b1894, type: 3}
      propertyPath: m_Materials.Array.data[0]
      value: 
      objectReference: {fileID: 2100000, guid: a05ee0b9de0a79e4b83597d99bf5dd5b, type: 2}
    - target: {fileID: 1725811017891010797, guid: a5883246fafd54c44a2ed0273c2b1894, type: 3}
      propertyPath: m_Materials.Array.data[0]
      value: 
      objectReference: {fileID: 2100000, guid: a05ee0b9de0a79e4b83597d99bf5dd5b, type: 2}
    - target: {fileID: 1725811017907725411, guid: a5883246fafd54c44a2ed0273c2b1894, type: 3}
      propertyPath: m_Materials.Array.data[0]
      value: 
      objectReference: {fileID: 2100000, guid: a05ee0b9de0a79e4b83597d99bf5dd5b, type: 2}
    - target: {fileID: 1725811018012601765, guid: a5883246fafd54c44a2ed0273c2b1894, type: 3}
      propertyPath: m_Materials.Array.data[0]
      value: 
      objectReference: {fileID: 2100000, guid: a05ee0b9de0a79e4b83597d99bf5dd5b, type: 2}
    - target: {fileID: 1725811018421661335, guid: a5883246fafd54c44a2ed0273c2b1894, type: 3}
      propertyPath: m_Materials.Array.data[0]
      value: 
      objectReference: {fileID: 2100000, guid: a05ee0b9de0a79e4b83597d99bf5dd5b, type: 2}
    - target: {fileID: 1725811018493578163, guid: a5883246fafd54c44a2ed0273c2b1894, type: 3}
      propertyPath: m_Materials.Array.data[0]
      value: 
      objectReference: {fileID: 2100000, guid: a05ee0b9de0a79e4b83597d99bf5dd5b, type: 2}
    - target: {fileID: 1725811018712666872, guid: a5883246fafd54c44a2ed0273c2b1894, type: 3}
      propertyPath: m_Materials.Array.data[0]
      value: 
      objectReference: {fileID: 2100000, guid: a05ee0b9de0a79e4b83597d99bf5dd5b, type: 2}
    - target: {fileID: 1725811018793855374, guid: a5883246fafd54c44a2ed0273c2b1894, type: 3}
      propertyPath: m_Materials.Array.data[0]
      value: 
      objectReference: {fileID: 2100000, guid: a05ee0b9de0a79e4b83597d99bf5dd5b, type: 2}
    - target: {fileID: 1725811018911507331, guid: a5883246fafd54c44a2ed0273c2b1894, type: 3}
      propertyPath: m_Materials.Array.data[0]
      value: 
      objectReference: {fileID: 2100000, guid: a05ee0b9de0a79e4b83597d99bf5dd5b, type: 2}
    - target: {fileID: 1725811018922831721, guid: a5883246fafd54c44a2ed0273c2b1894, type: 3}
      propertyPath: m_Materials.Array.data[0]
      value: 
      objectReference: {fileID: 2100000, guid: a05ee0b9de0a79e4b83597d99bf5dd5b, type: 2}
    - target: {fileID: 1725811019460496339, guid: a5883246fafd54c44a2ed0273c2b1894, type: 3}
      propertyPath: m_Materials.Array.data[0]
      value: 
      objectReference: {fileID: 2100000, guid: a05ee0b9de0a79e4b83597d99bf5dd5b, type: 2}
    - target: {fileID: 1850164045186070623, guid: a5883246fafd54c44a2ed0273c2b1894, type: 3}
      propertyPath: m_Materials.Array.data[0]
      value: 
      objectReference: {fileID: 2100000, guid: 81c7ae2386b1abf40828c9c2bb29720d, type: 2}
    - target: {fileID: 1850164045541635811, guid: a5883246fafd54c44a2ed0273c2b1894, type: 3}
      propertyPath: m_Materials.Array.data[0]
      value: 
      objectReference: {fileID: 2100000, guid: 81c7ae2386b1abf40828c9c2bb29720d, type: 2}
    - target: {fileID: 1850164045687850971, guid: a5883246fafd54c44a2ed0273c2b1894, type: 3}
      propertyPath: m_Materials.Array.data[0]
      value: 
      objectReference: {fileID: 2100000, guid: 983243ead81870c46a81ba94f21940c6, type: 2}
    - target: {fileID: 1850164045720435903, guid: a5883246fafd54c44a2ed0273c2b1894, type: 3}
      propertyPath: m_Materials.Array.data[0]
      value: 
      objectReference: {fileID: 2100000, guid: 983243ead81870c46a81ba94f21940c6, type: 2}
    - target: {fileID: 1850164045876113683, guid: a5883246fafd54c44a2ed0273c2b1894, type: 3}
      propertyPath: m_Materials.Array.data[0]
      value: 
      objectReference: {fileID: 2100000, guid: 983243ead81870c46a81ba94f21940c6, type: 2}
    - target: {fileID: 1850164046662005961, guid: a5883246fafd54c44a2ed0273c2b1894, type: 3}
      propertyPath: m_Materials.Array.data[0]
      value: 
      objectReference: {fileID: 2100000, guid: 81c7ae2386b1abf40828c9c2bb29720d, type: 2}
    - target: {fileID: 1850164047171760914, guid: a5883246fafd54c44a2ed0273c2b1894, type: 3}
      propertyPath: m_Materials.Array.data[0]
      value: 
      objectReference: {fileID: 2100000, guid: 983243ead81870c46a81ba94f21940c6, type: 2}
    - target: {fileID: 2341621431279566778, guid: a5883246fafd54c44a2ed0273c2b1894, type: 3}
      propertyPath: m_IsActive
      value: 1
      objectReference: {fileID: 0}
    - target: {fileID: 2740002865153926906, guid: a5883246fafd54c44a2ed0273c2b1894, type: 3}
      propertyPath: m_Materials.Array.data[0]
      value: 
      objectReference: {fileID: 2100000, guid: 81c7ae2386b1abf40828c9c2bb29720d, type: 2}
    - target: {fileID: 2740002865734708844, guid: a5883246fafd54c44a2ed0273c2b1894, type: 3}
      propertyPath: m_Materials.Array.data[0]
      value: 
      objectReference: {fileID: 2100000, guid: 81c7ae2386b1abf40828c9c2bb29720d, type: 2}
    - target: {fileID: 2740002865846133950, guid: a5883246fafd54c44a2ed0273c2b1894, type: 3}
      propertyPath: m_Materials.Array.data[0]
      value: 
      objectReference: {fileID: 2100000, guid: 983243ead81870c46a81ba94f21940c6, type: 2}
    - target: {fileID: 2740002866132236644, guid: a5883246fafd54c44a2ed0273c2b1894, type: 3}
      propertyPath: m_Materials.Array.data[0]
      value: 
      objectReference: {fileID: 2100000, guid: 81c7ae2386b1abf40828c9c2bb29720d, type: 2}
    - target: {fileID: 3086136411186246121, guid: a5883246fafd54c44a2ed0273c2b1894, type: 3}
      propertyPath: m_Materials.Array.data[0]
      value: 
      objectReference: {fileID: 2100000, guid: 46e5f6bfd5d20b64887a9086e9c2e7b6, type: 2}
    - target: {fileID: 3086136411186246121, guid: a5883246fafd54c44a2ed0273c2b1894, type: 3}
      propertyPath: m_Materials.Array.data[1]
      value: 
      objectReference: {fileID: 2100000, guid: a05ee0b9de0a79e4b83597d99bf5dd5b, type: 2}
    - target: {fileID: 3086136411186246121, guid: a5883246fafd54c44a2ed0273c2b1894, type: 3}
      propertyPath: m_Materials.Array.data[2]
      value: 
      objectReference: {fileID: 2100000, guid: 81c7ae2386b1abf40828c9c2bb29720d, type: 2}
    - target: {fileID: 3086136411600006599, guid: a5883246fafd54c44a2ed0273c2b1894, type: 3}
      propertyPath: m_Materials.Array.data[0]
      value: 
      objectReference: {fileID: 2100000, guid: 46e5f6bfd5d20b64887a9086e9c2e7b6, type: 2}
    - target: {fileID: 3086136411600006599, guid: a5883246fafd54c44a2ed0273c2b1894, type: 3}
      propertyPath: m_Materials.Array.data[1]
      value: 
      objectReference: {fileID: 2100000, guid: a05ee0b9de0a79e4b83597d99bf5dd5b, type: 2}
    - target: {fileID: 3086136411600006599, guid: a5883246fafd54c44a2ed0273c2b1894, type: 3}
      propertyPath: m_Materials.Array.data[2]
      value: 
      objectReference: {fileID: 2100000, guid: 81c7ae2386b1abf40828c9c2bb29720d, type: 2}
    - target: {fileID: 3086136411922018948, guid: a5883246fafd54c44a2ed0273c2b1894, type: 3}
      propertyPath: m_Materials.Array.data[0]
      value: 
      objectReference: {fileID: 2100000, guid: 46e5f6bfd5d20b64887a9086e9c2e7b6, type: 2}
    - target: {fileID: 3086136411922018948, guid: a5883246fafd54c44a2ed0273c2b1894, type: 3}
      propertyPath: m_Materials.Array.data[1]
      value: 
      objectReference: {fileID: 2100000, guid: a05ee0b9de0a79e4b83597d99bf5dd5b, type: 2}
    - target: {fileID: 3086136411922018948, guid: a5883246fafd54c44a2ed0273c2b1894, type: 3}
      propertyPath: m_Materials.Array.data[2]
      value: 
      objectReference: {fileID: 2100000, guid: 983243ead81870c46a81ba94f21940c6, type: 2}
    - target: {fileID: 3086136412749021296, guid: a5883246fafd54c44a2ed0273c2b1894, type: 3}
      propertyPath: m_Materials.Array.data[0]
      value: 
      objectReference: {fileID: 2100000, guid: 46e5f6bfd5d20b64887a9086e9c2e7b6, type: 2}
    - target: {fileID: 3086136412749021296, guid: a5883246fafd54c44a2ed0273c2b1894, type: 3}
      propertyPath: m_Materials.Array.data[1]
      value: 
      objectReference: {fileID: 2100000, guid: a05ee0b9de0a79e4b83597d99bf5dd5b, type: 2}
    - target: {fileID: 3086136412749021296, guid: a5883246fafd54c44a2ed0273c2b1894, type: 3}
      propertyPath: m_Materials.Array.data[2]
      value: 
      objectReference: {fileID: 2100000, guid: 81c7ae2386b1abf40828c9c2bb29720d, type: 2}
    - target: {fileID: 3226232983745656634, guid: a5883246fafd54c44a2ed0273c2b1894, type: 3}
      propertyPath: m_Materials.Array.data[0]
      value: 
      objectReference: {fileID: 2100000, guid: a05ee0b9de0a79e4b83597d99bf5dd5b, type: 2}
    - target: {fileID: 3226232983745656634, guid: a5883246fafd54c44a2ed0273c2b1894, type: 3}
      propertyPath: m_Materials.Array.data[1]
      value: 
      objectReference: {fileID: 2100000, guid: 983243ead81870c46a81ba94f21940c6, type: 2}
    - target: {fileID: 3226232983745656634, guid: a5883246fafd54c44a2ed0273c2b1894, type: 3}
      propertyPath: m_Materials.Array.data[2]
      value: 
      objectReference: {fileID: 2100000, guid: 46e5f6bfd5d20b64887a9086e9c2e7b6, type: 2}
    - target: {fileID: 3226232983757215502, guid: a5883246fafd54c44a2ed0273c2b1894, type: 3}
      propertyPath: m_Materials.Array.data[0]
      value: 
      objectReference: {fileID: 2100000, guid: a05ee0b9de0a79e4b83597d99bf5dd5b, type: 2}
    - target: {fileID: 3226232983757215502, guid: a5883246fafd54c44a2ed0273c2b1894, type: 3}
      propertyPath: m_Materials.Array.data[1]
      value: 
      objectReference: {fileID: 2100000, guid: 81c7ae2386b1abf40828c9c2bb29720d, type: 2}
    - target: {fileID: 3226232983757215502, guid: a5883246fafd54c44a2ed0273c2b1894, type: 3}
      propertyPath: m_Materials.Array.data[2]
      value: 
      objectReference: {fileID: 2100000, guid: 46e5f6bfd5d20b64887a9086e9c2e7b6, type: 2}
    - target: {fileID: 3226232984048899682, guid: a5883246fafd54c44a2ed0273c2b1894, type: 3}
      propertyPath: m_Materials.Array.data[0]
      value: 
      objectReference: {fileID: 2100000, guid: a05ee0b9de0a79e4b83597d99bf5dd5b, type: 2}
    - target: {fileID: 3226232984048899682, guid: a5883246fafd54c44a2ed0273c2b1894, type: 3}
      propertyPath: m_Materials.Array.data[1]
      value: 
      objectReference: {fileID: 2100000, guid: 81c7ae2386b1abf40828c9c2bb29720d, type: 2}
    - target: {fileID: 3226232984048899682, guid: a5883246fafd54c44a2ed0273c2b1894, type: 3}
      propertyPath: m_Materials.Array.data[2]
      value: 
      objectReference: {fileID: 2100000, guid: 46e5f6bfd5d20b64887a9086e9c2e7b6, type: 2}
    - target: {fileID: 3226232984985460550, guid: a5883246fafd54c44a2ed0273c2b1894, type: 3}
      propertyPath: m_Materials.Array.data[0]
      value: 
      objectReference: {fileID: 2100000, guid: a05ee0b9de0a79e4b83597d99bf5dd5b, type: 2}
    - target: {fileID: 3226232984985460550, guid: a5883246fafd54c44a2ed0273c2b1894, type: 3}
      propertyPath: m_Materials.Array.data[1]
      value: 
      objectReference: {fileID: 2100000, guid: 81c7ae2386b1abf40828c9c2bb29720d, type: 2}
    - target: {fileID: 3226232984985460550, guid: a5883246fafd54c44a2ed0273c2b1894, type: 3}
      propertyPath: m_Materials.Array.data[2]
      value: 
      objectReference: {fileID: 2100000, guid: 46e5f6bfd5d20b64887a9086e9c2e7b6, type: 2}
    - target: {fileID: 3416699887976364823, guid: a5883246fafd54c44a2ed0273c2b1894, type: 3}
      propertyPath: m_Materials.Array.data[0]
      value: 
      objectReference: {fileID: 2100000, guid: 97c778629b6490e48a8d8f5b02158ce4, type: 2}
    - target: {fileID: 3416699887976364823, guid: a5883246fafd54c44a2ed0273c2b1894, type: 3}
      propertyPath: m_Materials.Array.data[1]
      value: 
      objectReference: {fileID: 2100000, guid: a05ee0b9de0a79e4b83597d99bf5dd5b, type: 2}
    - target: {fileID: 3416699887976364823, guid: a5883246fafd54c44a2ed0273c2b1894, type: 3}
      propertyPath: m_Materials.Array.data[2]
      value: 
      objectReference: {fileID: 2100000, guid: 46e5f6bfd5d20b64887a9086e9c2e7b6, type: 2}
    - target: {fileID: 3416699888010209963, guid: a5883246fafd54c44a2ed0273c2b1894, type: 3}
      propertyPath: m_Materials.Array.data[0]
      value: 
      objectReference: {fileID: 2100000, guid: 97c778629b6490e48a8d8f5b02158ce4, type: 2}
    - target: {fileID: 3416699888010209963, guid: a5883246fafd54c44a2ed0273c2b1894, type: 3}
      propertyPath: m_Materials.Array.data[1]
      value: 
      objectReference: {fileID: 2100000, guid: a05ee0b9de0a79e4b83597d99bf5dd5b, type: 2}
    - target: {fileID: 3416699888010209963, guid: a5883246fafd54c44a2ed0273c2b1894, type: 3}
      propertyPath: m_Materials.Array.data[2]
      value: 
      objectReference: {fileID: 2100000, guid: 46e5f6bfd5d20b64887a9086e9c2e7b6, type: 2}
    - target: {fileID: 3416699888605784584, guid: a5883246fafd54c44a2ed0273c2b1894, type: 3}
      propertyPath: m_Materials.Array.data[0]
      value: 
      objectReference: {fileID: 2100000, guid: 97c778629b6490e48a8d8f5b02158ce4, type: 2}
    - target: {fileID: 3416699888605784584, guid: a5883246fafd54c44a2ed0273c2b1894, type: 3}
      propertyPath: m_Materials.Array.data[1]
      value: 
      objectReference: {fileID: 2100000, guid: a05ee0b9de0a79e4b83597d99bf5dd5b, type: 2}
    - target: {fileID: 3416699888605784584, guid: a5883246fafd54c44a2ed0273c2b1894, type: 3}
      propertyPath: m_Materials.Array.data[2]
      value: 
      objectReference: {fileID: 2100000, guid: 46e5f6bfd5d20b64887a9086e9c2e7b6, type: 2}
    - target: {fileID: 3416699889570294419, guid: a5883246fafd54c44a2ed0273c2b1894, type: 3}
      propertyPath: m_Materials.Array.data[0]
      value: 
      objectReference: {fileID: 2100000, guid: 97c778629b6490e48a8d8f5b02158ce4, type: 2}
    - target: {fileID: 3416699889570294419, guid: a5883246fafd54c44a2ed0273c2b1894, type: 3}
      propertyPath: m_Materials.Array.data[1]
      value: 
      objectReference: {fileID: 2100000, guid: a05ee0b9de0a79e4b83597d99bf5dd5b, type: 2}
    - target: {fileID: 3416699889570294419, guid: a5883246fafd54c44a2ed0273c2b1894, type: 3}
      propertyPath: m_Materials.Array.data[2]
      value: 
      objectReference: {fileID: 2100000, guid: 46e5f6bfd5d20b64887a9086e9c2e7b6, type: 2}
    - target: {fileID: 4730037083433166809, guid: a5883246fafd54c44a2ed0273c2b1894, type: 3}
      propertyPath: m_Materials.Array.data[0]
      value: 
      objectReference: {fileID: 2100000, guid: 46e5f6bfd5d20b64887a9086e9c2e7b6, type: 2}
    - target: {fileID: 4730037083433166809, guid: a5883246fafd54c44a2ed0273c2b1894, type: 3}
      propertyPath: m_Materials.Array.data[1]
      value: 
      objectReference: {fileID: 2100000, guid: 81c7ae2386b1abf40828c9c2bb29720d, type: 2}
    - target: {fileID: 4730037083433166809, guid: a5883246fafd54c44a2ed0273c2b1894, type: 3}
      propertyPath: m_Materials.Array.data[2]
      value: 
      objectReference: {fileID: 2100000, guid: a05ee0b9de0a79e4b83597d99bf5dd5b, type: 2}
    - target: {fileID: 4730037083548543429, guid: a5883246fafd54c44a2ed0273c2b1894, type: 3}
      propertyPath: m_Materials.Array.data[0]
      value: 
      objectReference: {fileID: 2100000, guid: 46e5f6bfd5d20b64887a9086e9c2e7b6, type: 2}
    - target: {fileID: 4730037083548543429, guid: a5883246fafd54c44a2ed0273c2b1894, type: 3}
      propertyPath: m_Materials.Array.data[1]
      value: 
      objectReference: {fileID: 2100000, guid: 81c7ae2386b1abf40828c9c2bb29720d, type: 2}
    - target: {fileID: 4730037083548543429, guid: a5883246fafd54c44a2ed0273c2b1894, type: 3}
      propertyPath: m_Materials.Array.data[2]
      value: 
      objectReference: {fileID: 2100000, guid: a05ee0b9de0a79e4b83597d99bf5dd5b, type: 2}
    - target: {fileID: 4730037083969516587, guid: a5883246fafd54c44a2ed0273c2b1894, type: 3}
      propertyPath: m_Materials.Array.data[0]
      value: 
      objectReference: {fileID: 2100000, guid: 46e5f6bfd5d20b64887a9086e9c2e7b6, type: 2}
    - target: {fileID: 4730037083969516587, guid: a5883246fafd54c44a2ed0273c2b1894, type: 3}
      propertyPath: m_Materials.Array.data[1]
      value: 
      objectReference: {fileID: 2100000, guid: 81c7ae2386b1abf40828c9c2bb29720d, type: 2}
    - target: {fileID: 4730037083969516587, guid: a5883246fafd54c44a2ed0273c2b1894, type: 3}
      propertyPath: m_Materials.Array.data[2]
      value: 
      objectReference: {fileID: 2100000, guid: a05ee0b9de0a79e4b83597d99bf5dd5b, type: 2}
    - target: {fileID: 4730037084605701786, guid: a5883246fafd54c44a2ed0273c2b1894, type: 3}
      propertyPath: m_Materials.Array.data[0]
      value: 
      objectReference: {fileID: 2100000, guid: 46e5f6bfd5d20b64887a9086e9c2e7b6, type: 2}
    - target: {fileID: 4730037084605701786, guid: a5883246fafd54c44a2ed0273c2b1894, type: 3}
      propertyPath: m_Materials.Array.data[1]
      value: 
      objectReference: {fileID: 2100000, guid: 81c7ae2386b1abf40828c9c2bb29720d, type: 2}
    - target: {fileID: 4730037084605701786, guid: a5883246fafd54c44a2ed0273c2b1894, type: 3}
      propertyPath: m_Materials.Array.data[2]
      value: 
      objectReference: {fileID: 2100000, guid: a05ee0b9de0a79e4b83597d99bf5dd5b, type: 2}
    - target: {fileID: 4730037084616320276, guid: a5883246fafd54c44a2ed0273c2b1894, type: 3}
      propertyPath: m_Materials.Array.data[0]
      value: 
      objectReference: {fileID: 2100000, guid: 46e5f6bfd5d20b64887a9086e9c2e7b6, type: 2}
    - target: {fileID: 4730037084616320276, guid: a5883246fafd54c44a2ed0273c2b1894, type: 3}
      propertyPath: m_Materials.Array.data[1]
      value: 
      objectReference: {fileID: 2100000, guid: 81c7ae2386b1abf40828c9c2bb29720d, type: 2}
    - target: {fileID: 4730037084616320276, guid: a5883246fafd54c44a2ed0273c2b1894, type: 3}
      propertyPath: m_Materials.Array.data[2]
      value: 
      objectReference: {fileID: 2100000, guid: a05ee0b9de0a79e4b83597d99bf5dd5b, type: 2}
    - target: {fileID: 4730037084762394209, guid: a5883246fafd54c44a2ed0273c2b1894, type: 3}
      propertyPath: m_Materials.Array.data[0]
      value: 
      objectReference: {fileID: 2100000, guid: 46e5f6bfd5d20b64887a9086e9c2e7b6, type: 2}
    - target: {fileID: 4730037084762394209, guid: a5883246fafd54c44a2ed0273c2b1894, type: 3}
      propertyPath: m_Materials.Array.data[1]
      value: 
      objectReference: {fileID: 2100000, guid: 983243ead81870c46a81ba94f21940c6, type: 2}
    - target: {fileID: 4730037084762394209, guid: a5883246fafd54c44a2ed0273c2b1894, type: 3}
      propertyPath: m_Materials.Array.data[2]
      value: 
      objectReference: {fileID: 2100000, guid: a05ee0b9de0a79e4b83597d99bf5dd5b, type: 2}
    - target: {fileID: 4730037084860659534, guid: a5883246fafd54c44a2ed0273c2b1894, type: 3}
      propertyPath: m_Materials.Array.data[0]
      value: 
      objectReference: {fileID: 2100000, guid: 46e5f6bfd5d20b64887a9086e9c2e7b6, type: 2}
    - target: {fileID: 4730037084860659534, guid: a5883246fafd54c44a2ed0273c2b1894, type: 3}
      propertyPath: m_Materials.Array.data[1]
      value: 
      objectReference: {fileID: 2100000, guid: 81c7ae2386b1abf40828c9c2bb29720d, type: 2}
    - target: {fileID: 4730037084860659534, guid: a5883246fafd54c44a2ed0273c2b1894, type: 3}
      propertyPath: m_Materials.Array.data[2]
      value: 
      objectReference: {fileID: 2100000, guid: a05ee0b9de0a79e4b83597d99bf5dd5b, type: 2}
    - target: {fileID: 4730037084911240188, guid: a5883246fafd54c44a2ed0273c2b1894, type: 3}
      propertyPath: m_Materials.Array.data[0]
      value: 
      objectReference: {fileID: 2100000, guid: 46e5f6bfd5d20b64887a9086e9c2e7b6, type: 2}
    - target: {fileID: 4730037084911240188, guid: a5883246fafd54c44a2ed0273c2b1894, type: 3}
      propertyPath: m_Materials.Array.data[1]
      value: 
      objectReference: {fileID: 2100000, guid: 81c7ae2386b1abf40828c9c2bb29720d, type: 2}
    - target: {fileID: 4730037084911240188, guid: a5883246fafd54c44a2ed0273c2b1894, type: 3}
      propertyPath: m_Materials.Array.data[2]
      value: 
      objectReference: {fileID: 2100000, guid: a05ee0b9de0a79e4b83597d99bf5dd5b, type: 2}
    - target: {fileID: 5041649046332375131, guid: a5883246fafd54c44a2ed0273c2b1894, type: 3}
      propertyPath: m_Materials.Array.data[0]
      value: 
      objectReference: {fileID: 2100000, guid: a05ee0b9de0a79e4b83597d99bf5dd5b, type: 2}
    - target: {fileID: 5041649046349044286, guid: a5883246fafd54c44a2ed0273c2b1894, type: 3}
      propertyPath: m_Materials.Array.data[0]
      value: 
      objectReference: {fileID: 2100000, guid: a05ee0b9de0a79e4b83597d99bf5dd5b, type: 2}
    - target: {fileID: 5041649046387479489, guid: a5883246fafd54c44a2ed0273c2b1894, type: 3}
      propertyPath: m_Materials.Array.data[0]
      value: 
      objectReference: {fileID: 2100000, guid: a05ee0b9de0a79e4b83597d99bf5dd5b, type: 2}
    - target: {fileID: 5041649046397207019, guid: a5883246fafd54c44a2ed0273c2b1894, type: 3}
      propertyPath: m_Materials.Array.data[0]
      value: 
      objectReference: {fileID: 2100000, guid: a05ee0b9de0a79e4b83597d99bf5dd5b, type: 2}
    - target: {fileID: 5041649046656925571, guid: a5883246fafd54c44a2ed0273c2b1894, type: 3}
      propertyPath: m_Materials.Array.data[0]
      value: 
      objectReference: {fileID: 2100000, guid: a05ee0b9de0a79e4b83597d99bf5dd5b, type: 2}
    - target: {fileID: 5041649046829281842, guid: a5883246fafd54c44a2ed0273c2b1894, type: 3}
      propertyPath: m_Materials.Array.data[0]
      value: 
      objectReference: {fileID: 2100000, guid: a05ee0b9de0a79e4b83597d99bf5dd5b, type: 2}
    - target: {fileID: 5041649046864482973, guid: a5883246fafd54c44a2ed0273c2b1894, type: 3}
      propertyPath: m_Materials.Array.data[0]
      value: 
      objectReference: {fileID: 2100000, guid: a05ee0b9de0a79e4b83597d99bf5dd5b, type: 2}
    - target: {fileID: 5041649046872454061, guid: a5883246fafd54c44a2ed0273c2b1894, type: 3}
      propertyPath: m_Materials.Array.data[0]
      value: 
      objectReference: {fileID: 2100000, guid: a05ee0b9de0a79e4b83597d99bf5dd5b, type: 2}
    - target: {fileID: 5041649046942040895, guid: a5883246fafd54c44a2ed0273c2b1894, type: 3}
      propertyPath: m_Materials.Array.data[0]
      value: 
      objectReference: {fileID: 2100000, guid: a05ee0b9de0a79e4b83597d99bf5dd5b, type: 2}
    - target: {fileID: 5041649046991184556, guid: a5883246fafd54c44a2ed0273c2b1894, type: 3}
      propertyPath: m_Materials.Array.data[0]
      value: 
      objectReference: {fileID: 2100000, guid: a05ee0b9de0a79e4b83597d99bf5dd5b, type: 2}
    - target: {fileID: 5041649047024805810, guid: a5883246fafd54c44a2ed0273c2b1894, type: 3}
      propertyPath: m_Materials.Array.data[0]
      value: 
      objectReference: {fileID: 2100000, guid: a05ee0b9de0a79e4b83597d99bf5dd5b, type: 2}
    - target: {fileID: 5041649047097797032, guid: a5883246fafd54c44a2ed0273c2b1894, type: 3}
      propertyPath: m_Materials.Array.data[0]
      value: 
      objectReference: {fileID: 2100000, guid: a05ee0b9de0a79e4b83597d99bf5dd5b, type: 2}
    - target: {fileID: 5041649047155384633, guid: a5883246fafd54c44a2ed0273c2b1894, type: 3}
      propertyPath: m_Materials.Array.data[0]
      value: 
      objectReference: {fileID: 2100000, guid: a05ee0b9de0a79e4b83597d99bf5dd5b, type: 2}
    - target: {fileID: 5041649047233101383, guid: a5883246fafd54c44a2ed0273c2b1894, type: 3}
      propertyPath: m_Materials.Array.data[0]
      value: 
      objectReference: {fileID: 2100000, guid: a05ee0b9de0a79e4b83597d99bf5dd5b, type: 2}
    - target: {fileID: 5041649047297633767, guid: a5883246fafd54c44a2ed0273c2b1894, type: 3}
      propertyPath: m_Materials.Array.data[0]
      value: 
      objectReference: {fileID: 2100000, guid: a05ee0b9de0a79e4b83597d99bf5dd5b, type: 2}
    - target: {fileID: 5041649047385953986, guid: a5883246fafd54c44a2ed0273c2b1894, type: 3}
      propertyPath: m_Materials.Array.data[0]
      value: 
      objectReference: {fileID: 2100000, guid: a05ee0b9de0a79e4b83597d99bf5dd5b, type: 2}
    - target: {fileID: 5041649047541336827, guid: a5883246fafd54c44a2ed0273c2b1894, type: 3}
      propertyPath: m_Materials.Array.data[0]
      value: 
      objectReference: {fileID: 2100000, guid: a05ee0b9de0a79e4b83597d99bf5dd5b, type: 2}
    - target: {fileID: 5041649047914653932, guid: a5883246fafd54c44a2ed0273c2b1894, type: 3}
      propertyPath: m_Materials.Array.data[0]
      value: 
      objectReference: {fileID: 2100000, guid: a05ee0b9de0a79e4b83597d99bf5dd5b, type: 2}
    - target: {fileID: 5041649048049986926, guid: a5883246fafd54c44a2ed0273c2b1894, type: 3}
      propertyPath: m_Materials.Array.data[0]
      value: 
      objectReference: {fileID: 2100000, guid: a05ee0b9de0a79e4b83597d99bf5dd5b, type: 2}
    - target: {fileID: 5041649048135993062, guid: a5883246fafd54c44a2ed0273c2b1894, type: 3}
      propertyPath: m_Materials.Array.data[0]
      value: 
      objectReference: {fileID: 2100000, guid: a05ee0b9de0a79e4b83597d99bf5dd5b, type: 2}
    - target: {fileID: 5041649048319294535, guid: a5883246fafd54c44a2ed0273c2b1894, type: 3}
      propertyPath: m_Materials.Array.data[0]
      value: 
      objectReference: {fileID: 2100000, guid: a05ee0b9de0a79e4b83597d99bf5dd5b, type: 2}
    - target: {fileID: 5411926610172403373, guid: a5883246fafd54c44a2ed0273c2b1894, type: 3}
      propertyPath: m_Materials.Array.data[0]
      value: 
      objectReference: {fileID: 2100000, guid: a05ee0b9de0a79e4b83597d99bf5dd5b, type: 2}
    - target: {fileID: 5411926610172403373, guid: a5883246fafd54c44a2ed0273c2b1894, type: 3}
      propertyPath: m_Materials.Array.data[1]
      value: 
      objectReference: {fileID: 2100000, guid: 983243ead81870c46a81ba94f21940c6, type: 2}
    - target: {fileID: 5411926610172403373, guid: a5883246fafd54c44a2ed0273c2b1894, type: 3}
      propertyPath: m_Materials.Array.data[2]
      value: 
      objectReference: {fileID: 2100000, guid: 46e5f6bfd5d20b64887a9086e9c2e7b6, type: 2}
    - target: {fileID: 5411926610422851732, guid: a5883246fafd54c44a2ed0273c2b1894, type: 3}
      propertyPath: m_Materials.Array.data[0]
      value: 
      objectReference: {fileID: 2100000, guid: a05ee0b9de0a79e4b83597d99bf5dd5b, type: 2}
    - target: {fileID: 5411926610422851732, guid: a5883246fafd54c44a2ed0273c2b1894, type: 3}
      propertyPath: m_Materials.Array.data[1]
      value: 
      objectReference: {fileID: 2100000, guid: 81c7ae2386b1abf40828c9c2bb29720d, type: 2}
    - target: {fileID: 5411926610422851732, guid: a5883246fafd54c44a2ed0273c2b1894, type: 3}
      propertyPath: m_Materials.Array.data[2]
      value: 
      objectReference: {fileID: 2100000, guid: 46e5f6bfd5d20b64887a9086e9c2e7b6, type: 2}
    - target: {fileID: 5411926610537215807, guid: a5883246fafd54c44a2ed0273c2b1894, type: 3}
      propertyPath: m_Materials.Array.data[0]
      value: 
      objectReference: {fileID: 2100000, guid: a05ee0b9de0a79e4b83597d99bf5dd5b, type: 2}
    - target: {fileID: 5411926610537215807, guid: a5883246fafd54c44a2ed0273c2b1894, type: 3}
      propertyPath: m_Materials.Array.data[1]
      value: 
      objectReference: {fileID: 2100000, guid: 81c7ae2386b1abf40828c9c2bb29720d, type: 2}
    - target: {fileID: 5411926610537215807, guid: a5883246fafd54c44a2ed0273c2b1894, type: 3}
      propertyPath: m_Materials.Array.data[2]
      value: 
      objectReference: {fileID: 2100000, guid: 46e5f6bfd5d20b64887a9086e9c2e7b6, type: 2}
    - target: {fileID: 5411926610938177659, guid: a5883246fafd54c44a2ed0273c2b1894, type: 3}
      propertyPath: m_Materials.Array.data[0]
      value: 
      objectReference: {fileID: 2100000, guid: a05ee0b9de0a79e4b83597d99bf5dd5b, type: 2}
    - target: {fileID: 5411926610938177659, guid: a5883246fafd54c44a2ed0273c2b1894, type: 3}
      propertyPath: m_Materials.Array.data[1]
      value: 
      objectReference: {fileID: 2100000, guid: 81c7ae2386b1abf40828c9c2bb29720d, type: 2}
    - target: {fileID: 5411926610938177659, guid: a5883246fafd54c44a2ed0273c2b1894, type: 3}
      propertyPath: m_Materials.Array.data[2]
      value: 
      objectReference: {fileID: 2100000, guid: 46e5f6bfd5d20b64887a9086e9c2e7b6, type: 2}
    - target: {fileID: 5411926610974640892, guid: a5883246fafd54c44a2ed0273c2b1894, type: 3}
      propertyPath: m_Materials.Array.data[0]
      value: 
      objectReference: {fileID: 2100000, guid: a05ee0b9de0a79e4b83597d99bf5dd5b, type: 2}
    - target: {fileID: 5411926610974640892, guid: a5883246fafd54c44a2ed0273c2b1894, type: 3}
      propertyPath: m_Materials.Array.data[1]
      value: 
      objectReference: {fileID: 2100000, guid: 81c7ae2386b1abf40828c9c2bb29720d, type: 2}
    - target: {fileID: 5411926610974640892, guid: a5883246fafd54c44a2ed0273c2b1894, type: 3}
      propertyPath: m_Materials.Array.data[2]
      value: 
      objectReference: {fileID: 2100000, guid: 46e5f6bfd5d20b64887a9086e9c2e7b6, type: 2}
    - target: {fileID: 5411926611195280295, guid: a5883246fafd54c44a2ed0273c2b1894, type: 3}
      propertyPath: m_Materials.Array.data[0]
      value: 
      objectReference: {fileID: 2100000, guid: a05ee0b9de0a79e4b83597d99bf5dd5b, type: 2}
    - target: {fileID: 5411926611195280295, guid: a5883246fafd54c44a2ed0273c2b1894, type: 3}
      propertyPath: m_Materials.Array.data[1]
      value: 
      objectReference: {fileID: 2100000, guid: 81c7ae2386b1abf40828c9c2bb29720d, type: 2}
    - target: {fileID: 5411926611195280295, guid: a5883246fafd54c44a2ed0273c2b1894, type: 3}
      propertyPath: m_Materials.Array.data[2]
      value: 
      objectReference: {fileID: 2100000, guid: 46e5f6bfd5d20b64887a9086e9c2e7b6, type: 2}
    - target: {fileID: 5411926611497595760, guid: a5883246fafd54c44a2ed0273c2b1894, type: 3}
      propertyPath: m_Materials.Array.data[0]
      value: 
      objectReference: {fileID: 2100000, guid: a05ee0b9de0a79e4b83597d99bf5dd5b, type: 2}
    - target: {fileID: 5411926611497595760, guid: a5883246fafd54c44a2ed0273c2b1894, type: 3}
      propertyPath: m_Materials.Array.data[1]
      value: 
      objectReference: {fileID: 2100000, guid: 81c7ae2386b1abf40828c9c2bb29720d, type: 2}
    - target: {fileID: 5411926611497595760, guid: a5883246fafd54c44a2ed0273c2b1894, type: 3}
      propertyPath: m_Materials.Array.data[2]
      value: 
      objectReference: {fileID: 2100000, guid: 46e5f6bfd5d20b64887a9086e9c2e7b6, type: 2}
    - target: {fileID: 5411926612045235886, guid: a5883246fafd54c44a2ed0273c2b1894, type: 3}
      propertyPath: m_Materials.Array.data[0]
      value: 
      objectReference: {fileID: 2100000, guid: a05ee0b9de0a79e4b83597d99bf5dd5b, type: 2}
    - target: {fileID: 5411926612045235886, guid: a5883246fafd54c44a2ed0273c2b1894, type: 3}
      propertyPath: m_Materials.Array.data[1]
      value: 
      objectReference: {fileID: 2100000, guid: 983243ead81870c46a81ba94f21940c6, type: 2}
    - target: {fileID: 5411926612045235886, guid: a5883246fafd54c44a2ed0273c2b1894, type: 3}
      propertyPath: m_Materials.Array.data[2]
      value: 
      objectReference: {fileID: 2100000, guid: 46e5f6bfd5d20b64887a9086e9c2e7b6, type: 2}
    - target: {fileID: 5586381537482500044, guid: a5883246fafd54c44a2ed0273c2b1894, type: 3}
      propertyPath: m_Materials.Array.data[0]
      value: 
      objectReference: {fileID: 2100000, guid: e368481ffd59f014283c07d09775161d, type: 2}
    - target: {fileID: 5586381537536021491, guid: a5883246fafd54c44a2ed0273c2b1894, type: 3}
      propertyPath: m_Materials.Array.data[0]
      value: 
      objectReference: {fileID: 2100000, guid: e368481ffd59f014283c07d09775161d, type: 2}
    - target: {fileID: 5586381537603067918, guid: a5883246fafd54c44a2ed0273c2b1894, type: 3}
      propertyPath: m_Materials.Array.data[0]
      value: 
      objectReference: {fileID: 2100000, guid: e368481ffd59f014283c07d09775161d, type: 2}
    - target: {fileID: 5586381537722672096, guid: a5883246fafd54c44a2ed0273c2b1894, type: 3}
      propertyPath: m_Materials.Array.data[0]
      value: 
      objectReference: {fileID: 2100000, guid: e368481ffd59f014283c07d09775161d, type: 2}
    - target: {fileID: 5586381537760164907, guid: a5883246fafd54c44a2ed0273c2b1894, type: 3}
      propertyPath: m_Materials.Array.data[0]
      value: 
      objectReference: {fileID: 2100000, guid: e368481ffd59f014283c07d09775161d, type: 2}
    - target: {fileID: 5586381537845436094, guid: a5883246fafd54c44a2ed0273c2b1894, type: 3}
      propertyPath: m_Materials.Array.data[0]
      value: 
      objectReference: {fileID: 2100000, guid: e368481ffd59f014283c07d09775161d, type: 2}
    - target: {fileID: 5586381537958563055, guid: a5883246fafd54c44a2ed0273c2b1894, type: 3}
      propertyPath: m_Materials.Array.data[0]
      value: 
      objectReference: {fileID: 2100000, guid: e368481ffd59f014283c07d09775161d, type: 2}
    - target: {fileID: 5586381537995567225, guid: a5883246fafd54c44a2ed0273c2b1894, type: 3}
      propertyPath: m_Materials.Array.data[0]
      value: 
      objectReference: {fileID: 2100000, guid: e368481ffd59f014283c07d09775161d, type: 2}
    - target: {fileID: 5586381538022317532, guid: a5883246fafd54c44a2ed0273c2b1894, type: 3}
      propertyPath: m_Materials.Array.data[0]
      value: 
      objectReference: {fileID: 2100000, guid: e368481ffd59f014283c07d09775161d, type: 2}
    - target: {fileID: 5586381538150963832, guid: a5883246fafd54c44a2ed0273c2b1894, type: 3}
      propertyPath: m_Materials.Array.data[0]
      value: 
      objectReference: {fileID: 2100000, guid: e368481ffd59f014283c07d09775161d, type: 2}
    - target: {fileID: 5586381538209762561, guid: a5883246fafd54c44a2ed0273c2b1894, type: 3}
      propertyPath: m_Materials.Array.data[0]
      value: 
      objectReference: {fileID: 2100000, guid: e368481ffd59f014283c07d09775161d, type: 2}
    - target: {fileID: 5586381538224376425, guid: a5883246fafd54c44a2ed0273c2b1894, type: 3}
      propertyPath: m_Materials.Array.data[0]
      value: 
      objectReference: {fileID: 2100000, guid: e368481ffd59f014283c07d09775161d, type: 2}
    - target: {fileID: 5586381538345691816, guid: a5883246fafd54c44a2ed0273c2b1894, type: 3}
      propertyPath: m_Materials.Array.data[0]
      value: 
      objectReference: {fileID: 2100000, guid: e368481ffd59f014283c07d09775161d, type: 2}
    - target: {fileID: 5586381538403690668, guid: a5883246fafd54c44a2ed0273c2b1894, type: 3}
      propertyPath: m_Materials.Array.data[0]
      value: 
      objectReference: {fileID: 2100000, guid: e368481ffd59f014283c07d09775161d, type: 2}
    - target: {fileID: 5586381538478614000, guid: a5883246fafd54c44a2ed0273c2b1894, type: 3}
      propertyPath: m_Materials.Array.data[0]
      value: 
      objectReference: {fileID: 2100000, guid: e368481ffd59f014283c07d09775161d, type: 2}
    - target: {fileID: 5586381538483152644, guid: a5883246fafd54c44a2ed0273c2b1894, type: 3}
      propertyPath: m_Materials.Array.data[0]
      value: 
      objectReference: {fileID: 2100000, guid: e368481ffd59f014283c07d09775161d, type: 2}
    - target: {fileID: 5586381538753746610, guid: a5883246fafd54c44a2ed0273c2b1894, type: 3}
      propertyPath: m_Materials.Array.data[0]
      value: 
      objectReference: {fileID: 2100000, guid: e368481ffd59f014283c07d09775161d, type: 2}
    - target: {fileID: 5586381538757676750, guid: a5883246fafd54c44a2ed0273c2b1894, type: 3}
      propertyPath: m_Materials.Array.data[0]
      value: 
      objectReference: {fileID: 2100000, guid: e368481ffd59f014283c07d09775161d, type: 2}
    - target: {fileID: 5586381538797448042, guid: a5883246fafd54c44a2ed0273c2b1894, type: 3}
      propertyPath: m_Materials.Array.data[0]
      value: 
      objectReference: {fileID: 2100000, guid: e368481ffd59f014283c07d09775161d, type: 2}
    - target: {fileID: 5586381538972741439, guid: a5883246fafd54c44a2ed0273c2b1894, type: 3}
      propertyPath: m_Materials.Array.data[0]
      value: 
      objectReference: {fileID: 2100000, guid: e368481ffd59f014283c07d09775161d, type: 2}
    - target: {fileID: 5586381539062404443, guid: a5883246fafd54c44a2ed0273c2b1894, type: 3}
      propertyPath: m_Materials.Array.data[0]
      value: 
      objectReference: {fileID: 2100000, guid: e368481ffd59f014283c07d09775161d, type: 2}
    - target: {fileID: 5586381539093821360, guid: a5883246fafd54c44a2ed0273c2b1894, type: 3}
      propertyPath: m_Materials.Array.data[0]
      value: 
      objectReference: {fileID: 2100000, guid: e368481ffd59f014283c07d09775161d, type: 2}
    - target: {fileID: 5586381539166803847, guid: a5883246fafd54c44a2ed0273c2b1894, type: 3}
      propertyPath: m_Materials.Array.data[0]
      value: 
      objectReference: {fileID: 2100000, guid: e368481ffd59f014283c07d09775161d, type: 2}
    - target: {fileID: 5586381539199609273, guid: a5883246fafd54c44a2ed0273c2b1894, type: 3}
      propertyPath: m_Materials.Array.data[0]
      value: 
      objectReference: {fileID: 2100000, guid: e368481ffd59f014283c07d09775161d, type: 2}
    - target: {fileID: 6128337319079413890, guid: a5883246fafd54c44a2ed0273c2b1894, type: 3}
      propertyPath: m_Materials.Array.data[0]
      value: 
      objectReference: {fileID: 2100000, guid: 46e5f6bfd5d20b64887a9086e9c2e7b6, type: 2}
    - target: {fileID: 6128337319079413890, guid: a5883246fafd54c44a2ed0273c2b1894, type: 3}
      propertyPath: m_Materials.Array.data[1]
      value: 
      objectReference: {fileID: 2100000, guid: 97c778629b6490e48a8d8f5b02158ce4, type: 2}
    - target: {fileID: 6128337319079413890, guid: a5883246fafd54c44a2ed0273c2b1894, type: 3}
      propertyPath: m_Materials.Array.data[2]
      value: 
      objectReference: {fileID: 2100000, guid: a05ee0b9de0a79e4b83597d99bf5dd5b, type: 2}
    - target: {fileID: 6128337319578680856, guid: a5883246fafd54c44a2ed0273c2b1894, type: 3}
      propertyPath: m_Materials.Array.data[0]
      value: 
      objectReference: {fileID: 2100000, guid: 46e5f6bfd5d20b64887a9086e9c2e7b6, type: 2}
    - target: {fileID: 6128337319578680856, guid: a5883246fafd54c44a2ed0273c2b1894, type: 3}
      propertyPath: m_Materials.Array.data[1]
      value: 
      objectReference: {fileID: 2100000, guid: 97c778629b6490e48a8d8f5b02158ce4, type: 2}
    - target: {fileID: 6128337319578680856, guid: a5883246fafd54c44a2ed0273c2b1894, type: 3}
      propertyPath: m_Materials.Array.data[2]
      value: 
      objectReference: {fileID: 2100000, guid: a05ee0b9de0a79e4b83597d99bf5dd5b, type: 2}
    - target: {fileID: 6128337320312065307, guid: a5883246fafd54c44a2ed0273c2b1894, type: 3}
      propertyPath: m_Materials.Array.data[0]
      value: 
      objectReference: {fileID: 2100000, guid: 46e5f6bfd5d20b64887a9086e9c2e7b6, type: 2}
    - target: {fileID: 6128337320312065307, guid: a5883246fafd54c44a2ed0273c2b1894, type: 3}
      propertyPath: m_Materials.Array.data[1]
      value: 
      objectReference: {fileID: 2100000, guid: 97c778629b6490e48a8d8f5b02158ce4, type: 2}
    - target: {fileID: 6128337320312065307, guid: a5883246fafd54c44a2ed0273c2b1894, type: 3}
      propertyPath: m_Materials.Array.data[2]
      value: 
      objectReference: {fileID: 2100000, guid: a05ee0b9de0a79e4b83597d99bf5dd5b, type: 2}
    - target: {fileID: 6128337320889021330, guid: a5883246fafd54c44a2ed0273c2b1894, type: 3}
      propertyPath: m_Materials.Array.data[0]
      value: 
      objectReference: {fileID: 2100000, guid: 46e5f6bfd5d20b64887a9086e9c2e7b6, type: 2}
    - target: {fileID: 6128337320889021330, guid: a5883246fafd54c44a2ed0273c2b1894, type: 3}
      propertyPath: m_Materials.Array.data[1]
      value: 
      objectReference: {fileID: 2100000, guid: 97c778629b6490e48a8d8f5b02158ce4, type: 2}
    - target: {fileID: 6128337320889021330, guid: a5883246fafd54c44a2ed0273c2b1894, type: 3}
      propertyPath: m_Materials.Array.data[2]
      value: 
      objectReference: {fileID: 2100000, guid: a05ee0b9de0a79e4b83597d99bf5dd5b, type: 2}
    - target: {fileID: 6608633032205146603, guid: a5883246fafd54c44a2ed0273c2b1894, type: 3}
      propertyPath: m_Materials.Array.data[0]
      value: 
      objectReference: {fileID: 2100000, guid: e368481ffd59f014283c07d09775161d, type: 2}
    - target: {fileID: 6608633032796084424, guid: a5883246fafd54c44a2ed0273c2b1894, type: 3}
      propertyPath: m_Materials.Array.data[0]
      value: 
      objectReference: {fileID: 2100000, guid: e368481ffd59f014283c07d09775161d, type: 2}
    - target: {fileID: 6608633033047229380, guid: a5883246fafd54c44a2ed0273c2b1894, type: 3}
      propertyPath: m_Materials.Array.data[0]
      value: 
      objectReference: {fileID: 2100000, guid: e368481ffd59f014283c07d09775161d, type: 2}
    - target: {fileID: 6608633033669794673, guid: a5883246fafd54c44a2ed0273c2b1894, type: 3}
      propertyPath: m_Materials.Array.data[0]
      value: 
      objectReference: {fileID: 2100000, guid: e368481ffd59f014283c07d09775161d, type: 2}
    - target: {fileID: 6743747375258715100, guid: a5883246fafd54c44a2ed0273c2b1894, type: 3}
      propertyPath: m_Materials.Array.data[0]
      value: 
      objectReference: {fileID: 2100000, guid: 983243ead81870c46a81ba94f21940c6, type: 2}
    - target: {fileID: 6743747375640733066, guid: a5883246fafd54c44a2ed0273c2b1894, type: 3}
      propertyPath: m_Materials.Array.data[0]
      value: 
      objectReference: {fileID: 2100000, guid: 81c7ae2386b1abf40828c9c2bb29720d, type: 2}
    - target: {fileID: 6743747375649244532, guid: a5883246fafd54c44a2ed0273c2b1894, type: 3}
      propertyPath: m_Materials.Array.data[0]
      value: 
      objectReference: {fileID: 2100000, guid: 81c7ae2386b1abf40828c9c2bb29720d, type: 2}
    - target: {fileID: 6743747376689313101, guid: a5883246fafd54c44a2ed0273c2b1894, type: 3}
      propertyPath: m_Materials.Array.data[0]
      value: 
      objectReference: {fileID: 2100000, guid: 81c7ae2386b1abf40828c9c2bb29720d, type: 2}
    - target: {fileID: 6743747376703203051, guid: a5883246fafd54c44a2ed0273c2b1894, type: 3}
      propertyPath: m_Materials.Array.data[0]
      value: 
      objectReference: {fileID: 2100000, guid: 81c7ae2386b1abf40828c9c2bb29720d, type: 2}
    - target: {fileID: 6743747376703230129, guid: a5883246fafd54c44a2ed0273c2b1894, type: 3}
      propertyPath: m_Materials.Array.data[0]
      value: 
      objectReference: {fileID: 2100000, guid: 983243ead81870c46a81ba94f21940c6, type: 2}
    - target: {fileID: 6743747376768904597, guid: a5883246fafd54c44a2ed0273c2b1894, type: 3}
      propertyPath: m_Materials.Array.data[0]
      value: 
      objectReference: {fileID: 2100000, guid: 81c7ae2386b1abf40828c9c2bb29720d, type: 2}
    - target: {fileID: 6743747377119133976, guid: a5883246fafd54c44a2ed0273c2b1894, type: 3}
      propertyPath: m_Materials.Array.data[0]
      value: 
      objectReference: {fileID: 2100000, guid: 81c7ae2386b1abf40828c9c2bb29720d, type: 2}
    - target: {fileID: 6751961173261488448, guid: a5883246fafd54c44a2ed0273c2b1894, type: 3}
      propertyPath: m_Materials.Array.data[0]
      value: 
      objectReference: {fileID: 2100000, guid: 46e5f6bfd5d20b64887a9086e9c2e7b6, type: 2}
    - target: {fileID: 6751961173261488448, guid: a5883246fafd54c44a2ed0273c2b1894, type: 3}
      propertyPath: m_Materials.Array.data[1]
      value: 
      objectReference: {fileID: 2100000, guid: 97c778629b6490e48a8d8f5b02158ce4, type: 2}
    - target: {fileID: 6751961173261488448, guid: a5883246fafd54c44a2ed0273c2b1894, type: 3}
      propertyPath: m_Materials.Array.data[2]
      value: 
      objectReference: {fileID: 2100000, guid: a05ee0b9de0a79e4b83597d99bf5dd5b, type: 2}
    - target: {fileID: 6751961173498258210, guid: a5883246fafd54c44a2ed0273c2b1894, type: 3}
      propertyPath: m_Materials.Array.data[0]
      value: 
      objectReference: {fileID: 2100000, guid: 46e5f6bfd5d20b64887a9086e9c2e7b6, type: 2}
    - target: {fileID: 6751961173498258210, guid: a5883246fafd54c44a2ed0273c2b1894, type: 3}
      propertyPath: m_Materials.Array.data[1]
      value: 
      objectReference: {fileID: 2100000, guid: 97c778629b6490e48a8d8f5b02158ce4, type: 2}
    - target: {fileID: 6751961173498258210, guid: a5883246fafd54c44a2ed0273c2b1894, type: 3}
      propertyPath: m_Materials.Array.data[2]
      value: 
      objectReference: {fileID: 2100000, guid: a05ee0b9de0a79e4b83597d99bf5dd5b, type: 2}
    - target: {fileID: 6868539501160394371, guid: a5883246fafd54c44a2ed0273c2b1894, type: 3}
      propertyPath: m_Materials.Array.data[0]
      value: 
      objectReference: {fileID: 2100000, guid: 81c7ae2386b1abf40828c9c2bb29720d, type: 2}
    - target: {fileID: 6868539501160394371, guid: a5883246fafd54c44a2ed0273c2b1894, type: 3}
      propertyPath: m_Materials.Array.data[1]
      value: 
      objectReference: {fileID: 2100000, guid: 46e5f6bfd5d20b64887a9086e9c2e7b6, type: 2}
    - target: {fileID: 6868539501219467340, guid: a5883246fafd54c44a2ed0273c2b1894, type: 3}
      propertyPath: m_Materials.Array.data[0]
      value: 
      objectReference: {fileID: 2100000, guid: 81c7ae2386b1abf40828c9c2bb29720d, type: 2}
    - target: {fileID: 6868539501219467340, guid: a5883246fafd54c44a2ed0273c2b1894, type: 3}
      propertyPath: m_Materials.Array.data[1]
      value: 
      objectReference: {fileID: 2100000, guid: 46e5f6bfd5d20b64887a9086e9c2e7b6, type: 2}
    - target: {fileID: 6868539501631913119, guid: a5883246fafd54c44a2ed0273c2b1894, type: 3}
      propertyPath: m_Materials.Array.data[0]
      value: 
      objectReference: {fileID: 2100000, guid: 983243ead81870c46a81ba94f21940c6, type: 2}
    - target: {fileID: 6868539501631913119, guid: a5883246fafd54c44a2ed0273c2b1894, type: 3}
      propertyPath: m_Materials.Array.data[1]
      value: 
      objectReference: {fileID: 2100000, guid: 46e5f6bfd5d20b64887a9086e9c2e7b6, type: 2}
    - target: {fileID: 6868539501728508264, guid: a5883246fafd54c44a2ed0273c2b1894, type: 3}
      propertyPath: m_Materials.Array.data[0]
      value: 
      objectReference: {fileID: 2100000, guid: 983243ead81870c46a81ba94f21940c6, type: 2}
    - target: {fileID: 6868539501728508264, guid: a5883246fafd54c44a2ed0273c2b1894, type: 3}
      propertyPath: m_Materials.Array.data[1]
      value: 
      objectReference: {fileID: 2100000, guid: 46e5f6bfd5d20b64887a9086e9c2e7b6, type: 2}
    - target: {fileID: 6868539501948328550, guid: a5883246fafd54c44a2ed0273c2b1894, type: 3}
      propertyPath: m_Materials.Array.data[0]
      value: 
      objectReference: {fileID: 2100000, guid: 81c7ae2386b1abf40828c9c2bb29720d, type: 2}
    - target: {fileID: 6868539501948328550, guid: a5883246fafd54c44a2ed0273c2b1894, type: 3}
      propertyPath: m_Materials.Array.data[1]
      value: 
      objectReference: {fileID: 2100000, guid: 46e5f6bfd5d20b64887a9086e9c2e7b6, type: 2}
    - target: {fileID: 6868539502222137725, guid: a5883246fafd54c44a2ed0273c2b1894, type: 3}
      propertyPath: m_Materials.Array.data[0]
      value: 
      objectReference: {fileID: 2100000, guid: 983243ead81870c46a81ba94f21940c6, type: 2}
    - target: {fileID: 6868539502222137725, guid: a5883246fafd54c44a2ed0273c2b1894, type: 3}
      propertyPath: m_Materials.Array.data[1]
      value: 
      objectReference: {fileID: 2100000, guid: 46e5f6bfd5d20b64887a9086e9c2e7b6, type: 2}
    - target: {fileID: 6868539502316979379, guid: a5883246fafd54c44a2ed0273c2b1894, type: 3}
      propertyPath: m_Materials.Array.data[0]
      value: 
      objectReference: {fileID: 2100000, guid: 81c7ae2386b1abf40828c9c2bb29720d, type: 2}
    - target: {fileID: 6868539502316979379, guid: a5883246fafd54c44a2ed0273c2b1894, type: 3}
      propertyPath: m_Materials.Array.data[1]
      value: 
      objectReference: {fileID: 2100000, guid: 46e5f6bfd5d20b64887a9086e9c2e7b6, type: 2}
    - target: {fileID: 6868539502326869142, guid: a5883246fafd54c44a2ed0273c2b1894, type: 3}
      propertyPath: m_Materials.Array.data[0]
      value: 
      objectReference: {fileID: 2100000, guid: 983243ead81870c46a81ba94f21940c6, type: 2}
    - target: {fileID: 6868539502326869142, guid: a5883246fafd54c44a2ed0273c2b1894, type: 3}
      propertyPath: m_Materials.Array.data[1]
      value: 
      objectReference: {fileID: 2100000, guid: 46e5f6bfd5d20b64887a9086e9c2e7b6, type: 2}
    - target: {fileID: 6868539502652251478, guid: a5883246fafd54c44a2ed0273c2b1894, type: 3}
      propertyPath: m_Materials.Array.data[0]
      value: 
      objectReference: {fileID: 2100000, guid: 983243ead81870c46a81ba94f21940c6, type: 2}
    - target: {fileID: 6868539502652251478, guid: a5883246fafd54c44a2ed0273c2b1894, type: 3}
      propertyPath: m_Materials.Array.data[1]
      value: 
      objectReference: {fileID: 2100000, guid: 46e5f6bfd5d20b64887a9086e9c2e7b6, type: 2}
    - target: {fileID: 6868539502678183061, guid: a5883246fafd54c44a2ed0273c2b1894, type: 3}
      propertyPath: m_Materials.Array.data[0]
      value: 
      objectReference: {fileID: 2100000, guid: 81c7ae2386b1abf40828c9c2bb29720d, type: 2}
    - target: {fileID: 6868539502678183061, guid: a5883246fafd54c44a2ed0273c2b1894, type: 3}
      propertyPath: m_Materials.Array.data[1]
      value: 
      objectReference: {fileID: 2100000, guid: 46e5f6bfd5d20b64887a9086e9c2e7b6, type: 2}
    - target: {fileID: 6868539502699672456, guid: a5883246fafd54c44a2ed0273c2b1894, type: 3}
      propertyPath: m_Materials.Array.data[0]
      value: 
      objectReference: {fileID: 2100000, guid: 81c7ae2386b1abf40828c9c2bb29720d, type: 2}
    - target: {fileID: 6868539502699672456, guid: a5883246fafd54c44a2ed0273c2b1894, type: 3}
      propertyPath: m_Materials.Array.data[1]
      value: 
      objectReference: {fileID: 2100000, guid: 46e5f6bfd5d20b64887a9086e9c2e7b6, type: 2}
    - target: {fileID: 6868539502706441194, guid: a5883246fafd54c44a2ed0273c2b1894, type: 3}
      propertyPath: m_Materials.Array.data[0]
      value: 
      objectReference: {fileID: 2100000, guid: 983243ead81870c46a81ba94f21940c6, type: 2}
    - target: {fileID: 6868539502706441194, guid: a5883246fafd54c44a2ed0273c2b1894, type: 3}
      propertyPath: m_Materials.Array.data[1]
      value: 
      objectReference: {fileID: 2100000, guid: 46e5f6bfd5d20b64887a9086e9c2e7b6, type: 2}
    - target: {fileID: 6868539502789137460, guid: a5883246fafd54c44a2ed0273c2b1894, type: 3}
      propertyPath: m_Materials.Array.data[0]
      value: 
      objectReference: {fileID: 2100000, guid: 983243ead81870c46a81ba94f21940c6, type: 2}
    - target: {fileID: 6868539502789137460, guid: a5883246fafd54c44a2ed0273c2b1894, type: 3}
      propertyPath: m_Materials.Array.data[1]
      value: 
      objectReference: {fileID: 2100000, guid: 46e5f6bfd5d20b64887a9086e9c2e7b6, type: 2}
    - target: {fileID: 6868539502899115813, guid: a5883246fafd54c44a2ed0273c2b1894, type: 3}
      propertyPath: m_Materials.Array.data[0]
      value: 
      objectReference: {fileID: 2100000, guid: 81c7ae2386b1abf40828c9c2bb29720d, type: 2}
    - target: {fileID: 6868539502899115813, guid: a5883246fafd54c44a2ed0273c2b1894, type: 3}
      propertyPath: m_Materials.Array.data[1]
      value: 
      objectReference: {fileID: 2100000, guid: 46e5f6bfd5d20b64887a9086e9c2e7b6, type: 2}
    - target: {fileID: 6868539502905611380, guid: a5883246fafd54c44a2ed0273c2b1894, type: 3}
      propertyPath: m_Materials.Array.data[0]
      value: 
      objectReference: {fileID: 2100000, guid: 81c7ae2386b1abf40828c9c2bb29720d, type: 2}
    - target: {fileID: 6868539502905611380, guid: a5883246fafd54c44a2ed0273c2b1894, type: 3}
      propertyPath: m_Materials.Array.data[1]
      value: 
      objectReference: {fileID: 2100000, guid: 46e5f6bfd5d20b64887a9086e9c2e7b6, type: 2}
    - target: {fileID: 6868539503010486409, guid: a5883246fafd54c44a2ed0273c2b1894, type: 3}
      propertyPath: m_Materials.Array.data[0]
      value: 
      objectReference: {fileID: 2100000, guid: 81c7ae2386b1abf40828c9c2bb29720d, type: 2}
    - target: {fileID: 6868539503010486409, guid: a5883246fafd54c44a2ed0273c2b1894, type: 3}
      propertyPath: m_Materials.Array.data[1]
      value: 
      objectReference: {fileID: 2100000, guid: 46e5f6bfd5d20b64887a9086e9c2e7b6, type: 2}
    - target: {fileID: 6944672475266026788, guid: a5883246fafd54c44a2ed0273c2b1894, type: 3}
      propertyPath: m_RootOrder
      value: 0
      objectReference: {fileID: 0}
    - target: {fileID: 6944672475266026788, guid: a5883246fafd54c44a2ed0273c2b1894, type: 3}
      propertyPath: m_LocalPosition.x
      value: 0
      objectReference: {fileID: 0}
    - target: {fileID: 6944672475266026788, guid: a5883246fafd54c44a2ed0273c2b1894, type: 3}
      propertyPath: m_LocalPosition.y
      value: 0
      objectReference: {fileID: 0}
    - target: {fileID: 6944672475266026788, guid: a5883246fafd54c44a2ed0273c2b1894, type: 3}
      propertyPath: m_LocalPosition.z
      value: 0
      objectReference: {fileID: 0}
    - target: {fileID: 6944672475266026788, guid: a5883246fafd54c44a2ed0273c2b1894, type: 3}
      propertyPath: m_LocalRotation.w
      value: 1
      objectReference: {fileID: 0}
    - target: {fileID: 6944672475266026788, guid: a5883246fafd54c44a2ed0273c2b1894, type: 3}
      propertyPath: m_LocalRotation.x
      value: 0
      objectReference: {fileID: 0}
    - target: {fileID: 6944672475266026788, guid: a5883246fafd54c44a2ed0273c2b1894, type: 3}
      propertyPath: m_LocalRotation.y
      value: 0
      objectReference: {fileID: 0}
    - target: {fileID: 6944672475266026788, guid: a5883246fafd54c44a2ed0273c2b1894, type: 3}
      propertyPath: m_LocalRotation.z
      value: 0
      objectReference: {fileID: 0}
    - target: {fileID: 6944672475266026788, guid: a5883246fafd54c44a2ed0273c2b1894, type: 3}
      propertyPath: m_LocalEulerAnglesHint.x
      value: 0
      objectReference: {fileID: 0}
    - target: {fileID: 6944672475266026788, guid: a5883246fafd54c44a2ed0273c2b1894, type: 3}
      propertyPath: m_LocalEulerAnglesHint.y
      value: 0
      objectReference: {fileID: 0}
    - target: {fileID: 6944672475266026788, guid: a5883246fafd54c44a2ed0273c2b1894, type: 3}
      propertyPath: m_LocalEulerAnglesHint.z
      value: 0
      objectReference: {fileID: 0}
    - target: {fileID: 7188212314911754844, guid: a5883246fafd54c44a2ed0273c2b1894, type: 3}
      propertyPath: m_Materials.Array.data[0]
      value: 
      objectReference: {fileID: 2100000, guid: e368481ffd59f014283c07d09775161d, type: 2}
    - target: {fileID: 7188212314946349559, guid: a5883246fafd54c44a2ed0273c2b1894, type: 3}
      propertyPath: m_Materials.Array.data[0]
      value: 
      objectReference: {fileID: 2100000, guid: e368481ffd59f014283c07d09775161d, type: 2}
    - target: {fileID: 7188212314953424925, guid: a5883246fafd54c44a2ed0273c2b1894, type: 3}
      propertyPath: m_Materials.Array.data[0]
      value: 
      objectReference: {fileID: 2100000, guid: e368481ffd59f014283c07d09775161d, type: 2}
    - target: {fileID: 7188212314965879589, guid: a5883246fafd54c44a2ed0273c2b1894, type: 3}
      propertyPath: m_Materials.Array.data[0]
      value: 
      objectReference: {fileID: 2100000, guid: e368481ffd59f014283c07d09775161d, type: 2}
    - target: {fileID: 7188212314971887899, guid: a5883246fafd54c44a2ed0273c2b1894, type: 3}
      propertyPath: m_Materials.Array.data[0]
      value: 
      objectReference: {fileID: 2100000, guid: e368481ffd59f014283c07d09775161d, type: 2}
    - target: {fileID: 7188212315011814208, guid: a5883246fafd54c44a2ed0273c2b1894, type: 3}
      propertyPath: m_Materials.Array.data[0]
      value: 
      objectReference: {fileID: 2100000, guid: e368481ffd59f014283c07d09775161d, type: 2}
    - target: {fileID: 7188212315159217585, guid: a5883246fafd54c44a2ed0273c2b1894, type: 3}
      propertyPath: m_Materials.Array.data[0]
      value: 
      objectReference: {fileID: 2100000, guid: e368481ffd59f014283c07d09775161d, type: 2}
    - target: {fileID: 7188212315294536859, guid: a5883246fafd54c44a2ed0273c2b1894, type: 3}
      propertyPath: m_Materials.Array.data[0]
      value: 
      objectReference: {fileID: 2100000, guid: e368481ffd59f014283c07d09775161d, type: 2}
    - target: {fileID: 7188212315381456376, guid: a5883246fafd54c44a2ed0273c2b1894, type: 3}
      propertyPath: m_Materials.Array.data[0]
      value: 
      objectReference: {fileID: 2100000, guid: e368481ffd59f014283c07d09775161d, type: 2}
    - target: {fileID: 7188212315449861537, guid: a5883246fafd54c44a2ed0273c2b1894, type: 3}
      propertyPath: m_Materials.Array.data[0]
      value: 
      objectReference: {fileID: 2100000, guid: e368481ffd59f014283c07d09775161d, type: 2}
    - target: {fileID: 7188212315453064616, guid: a5883246fafd54c44a2ed0273c2b1894, type: 3}
      propertyPath: m_Materials.Array.data[0]
      value: 
      objectReference: {fileID: 2100000, guid: e368481ffd59f014283c07d09775161d, type: 2}
    - target: {fileID: 7188212315456529640, guid: a5883246fafd54c44a2ed0273c2b1894, type: 3}
      propertyPath: m_Materials.Array.data[0]
      value: 
      objectReference: {fileID: 2100000, guid: e368481ffd59f014283c07d09775161d, type: 2}
    - target: {fileID: 7188212315472174911, guid: a5883246fafd54c44a2ed0273c2b1894, type: 3}
      propertyPath: m_Materials.Array.data[0]
      value: 
      objectReference: {fileID: 2100000, guid: e368481ffd59f014283c07d09775161d, type: 2}
    - target: {fileID: 7188212315763920054, guid: a5883246fafd54c44a2ed0273c2b1894, type: 3}
      propertyPath: m_Materials.Array.data[0]
      value: 
      objectReference: {fileID: 2100000, guid: e368481ffd59f014283c07d09775161d, type: 2}
    - target: {fileID: 7188212315795485795, guid: a5883246fafd54c44a2ed0273c2b1894, type: 3}
      propertyPath: m_Materials.Array.data[0]
      value: 
      objectReference: {fileID: 2100000, guid: e368481ffd59f014283c07d09775161d, type: 2}
    - target: {fileID: 7188212315877762078, guid: a5883246fafd54c44a2ed0273c2b1894, type: 3}
      propertyPath: m_Materials.Array.data[0]
      value: 
      objectReference: {fileID: 2100000, guid: e368481ffd59f014283c07d09775161d, type: 2}
    - target: {fileID: 7188212316033331894, guid: a5883246fafd54c44a2ed0273c2b1894, type: 3}
      propertyPath: m_Materials.Array.data[0]
      value: 
      objectReference: {fileID: 2100000, guid: e368481ffd59f014283c07d09775161d, type: 2}
    - target: {fileID: 7188212316079274965, guid: a5883246fafd54c44a2ed0273c2b1894, type: 3}
      propertyPath: m_Materials.Array.data[0]
      value: 
      objectReference: {fileID: 2100000, guid: e368481ffd59f014283c07d09775161d, type: 2}
    - target: {fileID: 7188212316172068855, guid: a5883246fafd54c44a2ed0273c2b1894, type: 3}
      propertyPath: m_Materials.Array.data[0]
      value: 
      objectReference: {fileID: 2100000, guid: e368481ffd59f014283c07d09775161d, type: 2}
    - target: {fileID: 7188212316179194494, guid: a5883246fafd54c44a2ed0273c2b1894, type: 3}
      propertyPath: m_Materials.Array.data[0]
      value: 
      objectReference: {fileID: 2100000, guid: e368481ffd59f014283c07d09775161d, type: 2}
    - target: {fileID: 7188212316192739872, guid: a5883246fafd54c44a2ed0273c2b1894, type: 3}
      propertyPath: m_Materials.Array.data[0]
      value: 
      objectReference: {fileID: 2100000, guid: e368481ffd59f014283c07d09775161d, type: 2}
    - target: {fileID: 7188212316575036955, guid: a5883246fafd54c44a2ed0273c2b1894, type: 3}
      propertyPath: m_Materials.Array.data[0]
      value: 
      objectReference: {fileID: 2100000, guid: e368481ffd59f014283c07d09775161d, type: 2}
    - target: {fileID: 7188212316736016159, guid: a5883246fafd54c44a2ed0273c2b1894, type: 3}
      propertyPath: m_Materials.Array.data[0]
      value: 
      objectReference: {fileID: 2100000, guid: e368481ffd59f014283c07d09775161d, type: 2}
    - target: {fileID: 7188212317026543234, guid: a5883246fafd54c44a2ed0273c2b1894, type: 3}
      propertyPath: m_Materials.Array.data[0]
      value: 
      objectReference: {fileID: 2100000, guid: e368481ffd59f014283c07d09775161d, type: 2}
    - target: {fileID: 7193603998103818059, guid: a5883246fafd54c44a2ed0273c2b1894, type: 3}
      propertyPath: m_Materials.Array.data[0]
      value: 
      objectReference: {fileID: 2100000, guid: 81c7ae2386b1abf40828c9c2bb29720d, type: 2}
    - target: {fileID: 7193603998103818059, guid: a5883246fafd54c44a2ed0273c2b1894, type: 3}
      propertyPath: m_Materials.Array.data[1]
      value: 
      objectReference: {fileID: 2100000, guid: a05ee0b9de0a79e4b83597d99bf5dd5b, type: 2}
    - target: {fileID: 7193603998103818059, guid: a5883246fafd54c44a2ed0273c2b1894, type: 3}
      propertyPath: m_Materials.Array.data[2]
      value: 
      objectReference: {fileID: 2100000, guid: 46e5f6bfd5d20b64887a9086e9c2e7b6, type: 2}
    - target: {fileID: 7193603999318907947, guid: a5883246fafd54c44a2ed0273c2b1894, type: 3}
      propertyPath: m_Materials.Array.data[0]
      value: 
      objectReference: {fileID: 2100000, guid: 81c7ae2386b1abf40828c9c2bb29720d, type: 2}
    - target: {fileID: 7193603999318907947, guid: a5883246fafd54c44a2ed0273c2b1894, type: 3}
      propertyPath: m_Materials.Array.data[1]
      value: 
      objectReference: {fileID: 2100000, guid: a05ee0b9de0a79e4b83597d99bf5dd5b, type: 2}
    - target: {fileID: 7193603999318907947, guid: a5883246fafd54c44a2ed0273c2b1894, type: 3}
      propertyPath: m_Materials.Array.data[2]
      value: 
      objectReference: {fileID: 2100000, guid: 46e5f6bfd5d20b64887a9086e9c2e7b6, type: 2}
    - target: {fileID: 7536305765117600099, guid: a5883246fafd54c44a2ed0273c2b1894, type: 3}
      propertyPath: m_Materials.Array.data[0]
      value: 
      objectReference: {fileID: 2100000, guid: e368481ffd59f014283c07d09775161d, type: 2}
    - target: {fileID: 7536305765130128061, guid: a5883246fafd54c44a2ed0273c2b1894, type: 3}
      propertyPath: m_Materials.Array.data[0]
      value: 
      objectReference: {fileID: 2100000, guid: e368481ffd59f014283c07d09775161d, type: 2}
    - target: {fileID: 7536305765323074425, guid: a5883246fafd54c44a2ed0273c2b1894, type: 3}
      propertyPath: m_Materials.Array.data[0]
      value: 
      objectReference: {fileID: 2100000, guid: e368481ffd59f014283c07d09775161d, type: 2}
    - target: {fileID: 7536305765610569923, guid: a5883246fafd54c44a2ed0273c2b1894, type: 3}
      propertyPath: m_Materials.Array.data[0]
      value: 
      objectReference: {fileID: 2100000, guid: e368481ffd59f014283c07d09775161d, type: 2}
    - target: {fileID: 7536305765610715092, guid: a5883246fafd54c44a2ed0273c2b1894, type: 3}
      propertyPath: m_Materials.Array.data[0]
      value: 
      objectReference: {fileID: 2100000, guid: e368481ffd59f014283c07d09775161d, type: 2}
    - target: {fileID: 7536305765645856159, guid: a5883246fafd54c44a2ed0273c2b1894, type: 3}
      propertyPath: m_Materials.Array.data[0]
      value: 
      objectReference: {fileID: 2100000, guid: e368481ffd59f014283c07d09775161d, type: 2}
    - target: {fileID: 7536305765766990488, guid: a5883246fafd54c44a2ed0273c2b1894, type: 3}
      propertyPath: m_Materials.Array.data[0]
      value: 
      objectReference: {fileID: 2100000, guid: e368481ffd59f014283c07d09775161d, type: 2}
    - target: {fileID: 7536305765780965635, guid: a5883246fafd54c44a2ed0273c2b1894, type: 3}
      propertyPath: m_Materials.Array.data[0]
      value: 
      objectReference: {fileID: 2100000, guid: e368481ffd59f014283c07d09775161d, type: 2}
    - target: {fileID: 7536305765792511685, guid: a5883246fafd54c44a2ed0273c2b1894, type: 3}
      propertyPath: m_Materials.Array.data[0]
      value: 
      objectReference: {fileID: 2100000, guid: e368481ffd59f014283c07d09775161d, type: 2}
    - target: {fileID: 7536305765859299948, guid: a5883246fafd54c44a2ed0273c2b1894, type: 3}
      propertyPath: m_Materials.Array.data[0]
      value: 
      objectReference: {fileID: 2100000, guid: e368481ffd59f014283c07d09775161d, type: 2}
    - target: {fileID: 7536305765957574464, guid: a5883246fafd54c44a2ed0273c2b1894, type: 3}
      propertyPath: m_Materials.Array.data[0]
      value: 
      objectReference: {fileID: 2100000, guid: e368481ffd59f014283c07d09775161d, type: 2}
    - target: {fileID: 7536305765963103798, guid: a5883246fafd54c44a2ed0273c2b1894, type: 3}
      propertyPath: m_Materials.Array.data[0]
      value: 
      objectReference: {fileID: 2100000, guid: e368481ffd59f014283c07d09775161d, type: 2}
    - target: {fileID: 7536305766046610183, guid: a5883246fafd54c44a2ed0273c2b1894, type: 3}
      propertyPath: m_Materials.Array.data[0]
      value: 
      objectReference: {fileID: 2100000, guid: e368481ffd59f014283c07d09775161d, type: 2}
    - target: {fileID: 7536305766052818788, guid: a5883246fafd54c44a2ed0273c2b1894, type: 3}
      propertyPath: m_Materials.Array.data[0]
      value: 
      objectReference: {fileID: 2100000, guid: e368481ffd59f014283c07d09775161d, type: 2}
    - target: {fileID: 7536305766179969095, guid: a5883246fafd54c44a2ed0273c2b1894, type: 3}
      propertyPath: m_Materials.Array.data[0]
      value: 
      objectReference: {fileID: 2100000, guid: e368481ffd59f014283c07d09775161d, type: 2}
    - target: {fileID: 7536305766228381940, guid: a5883246fafd54c44a2ed0273c2b1894, type: 3}
      propertyPath: m_Materials.Array.data[0]
      value: 
      objectReference: {fileID: 2100000, guid: e368481ffd59f014283c07d09775161d, type: 2}
    - target: {fileID: 7536305766431483512, guid: a5883246fafd54c44a2ed0273c2b1894, type: 3}
      propertyPath: m_Materials.Array.data[0]
      value: 
      objectReference: {fileID: 2100000, guid: e368481ffd59f014283c07d09775161d, type: 2}
    - target: {fileID: 7536305766616783362, guid: a5883246fafd54c44a2ed0273c2b1894, type: 3}
      propertyPath: m_Materials.Array.data[0]
      value: 
      objectReference: {fileID: 2100000, guid: e368481ffd59f014283c07d09775161d, type: 2}
    - target: {fileID: 7536305766694864814, guid: a5883246fafd54c44a2ed0273c2b1894, type: 3}
      propertyPath: m_Materials.Array.data[0]
      value: 
      objectReference: {fileID: 2100000, guid: e368481ffd59f014283c07d09775161d, type: 2}
    - target: {fileID: 7536305766750221924, guid: a5883246fafd54c44a2ed0273c2b1894, type: 3}
      propertyPath: m_Materials.Array.data[0]
      value: 
      objectReference: {fileID: 2100000, guid: e368481ffd59f014283c07d09775161d, type: 2}
    - target: {fileID: 8000537771973959588, guid: a5883246fafd54c44a2ed0273c2b1894, type: 3}
      propertyPath: m_Materials.Array.data[0]
      value: 
      objectReference: {fileID: 2100000, guid: 97c778629b6490e48a8d8f5b02158ce4, type: 2}
    - target: {fileID: 8000537771973959588, guid: a5883246fafd54c44a2ed0273c2b1894, type: 3}
      propertyPath: m_Materials.Array.data[1]
      value: 
      objectReference: {fileID: 2100000, guid: a05ee0b9de0a79e4b83597d99bf5dd5b, type: 2}
    - target: {fileID: 8000537771973959588, guid: a5883246fafd54c44a2ed0273c2b1894, type: 3}
      propertyPath: m_Materials.Array.data[2]
      value: 
      objectReference: {fileID: 2100000, guid: 46e5f6bfd5d20b64887a9086e9c2e7b6, type: 2}
    - target: {fileID: 8000537772037379299, guid: a5883246fafd54c44a2ed0273c2b1894, type: 3}
      propertyPath: m_Materials.Array.data[0]
      value: 
      objectReference: {fileID: 2100000, guid: 97c778629b6490e48a8d8f5b02158ce4, type: 2}
    - target: {fileID: 8000537772037379299, guid: a5883246fafd54c44a2ed0273c2b1894, type: 3}
      propertyPath: m_Materials.Array.data[1]
      value: 
      objectReference: {fileID: 2100000, guid: a05ee0b9de0a79e4b83597d99bf5dd5b, type: 2}
    - target: {fileID: 8000537772037379299, guid: a5883246fafd54c44a2ed0273c2b1894, type: 3}
      propertyPath: m_Materials.Array.data[2]
      value: 
      objectReference: {fileID: 2100000, guid: 46e5f6bfd5d20b64887a9086e9c2e7b6, type: 2}
    - target: {fileID: 8000537772133492472, guid: a5883246fafd54c44a2ed0273c2b1894, type: 3}
      propertyPath: m_Materials.Array.data[0]
      value: 
      objectReference: {fileID: 2100000, guid: 97c778629b6490e48a8d8f5b02158ce4, type: 2}
    - target: {fileID: 8000537772133492472, guid: a5883246fafd54c44a2ed0273c2b1894, type: 3}
      propertyPath: m_Materials.Array.data[1]
      value: 
      objectReference: {fileID: 2100000, guid: a05ee0b9de0a79e4b83597d99bf5dd5b, type: 2}
    - target: {fileID: 8000537772133492472, guid: a5883246fafd54c44a2ed0273c2b1894, type: 3}
      propertyPath: m_Materials.Array.data[2]
      value: 
      objectReference: {fileID: 2100000, guid: 46e5f6bfd5d20b64887a9086e9c2e7b6, type: 2}
    - target: {fileID: 8000537772353842790, guid: a5883246fafd54c44a2ed0273c2b1894, type: 3}
      propertyPath: m_Materials.Array.data[0]
      value: 
      objectReference: {fileID: 2100000, guid: 97c778629b6490e48a8d8f5b02158ce4, type: 2}
    - target: {fileID: 8000537772353842790, guid: a5883246fafd54c44a2ed0273c2b1894, type: 3}
      propertyPath: m_Materials.Array.data[1]
      value: 
      objectReference: {fileID: 2100000, guid: a05ee0b9de0a79e4b83597d99bf5dd5b, type: 2}
    - target: {fileID: 8000537772353842790, guid: a5883246fafd54c44a2ed0273c2b1894, type: 3}
      propertyPath: m_Materials.Array.data[2]
      value: 
      objectReference: {fileID: 2100000, guid: 46e5f6bfd5d20b64887a9086e9c2e7b6, type: 2}
    - target: {fileID: 8000537772518568284, guid: a5883246fafd54c44a2ed0273c2b1894, type: 3}
      propertyPath: m_Materials.Array.data[0]
      value: 
      objectReference: {fileID: 2100000, guid: 97c778629b6490e48a8d8f5b02158ce4, type: 2}
    - target: {fileID: 8000537772518568284, guid: a5883246fafd54c44a2ed0273c2b1894, type: 3}
      propertyPath: m_Materials.Array.data[1]
      value: 
      objectReference: {fileID: 2100000, guid: a05ee0b9de0a79e4b83597d99bf5dd5b, type: 2}
    - target: {fileID: 8000537772518568284, guid: a5883246fafd54c44a2ed0273c2b1894, type: 3}
      propertyPath: m_Materials.Array.data[2]
      value: 
      objectReference: {fileID: 2100000, guid: 46e5f6bfd5d20b64887a9086e9c2e7b6, type: 2}
    - target: {fileID: 8000537772632175304, guid: a5883246fafd54c44a2ed0273c2b1894, type: 3}
      propertyPath: m_Materials.Array.data[0]
      value: 
      objectReference: {fileID: 2100000, guid: 97c778629b6490e48a8d8f5b02158ce4, type: 2}
    - target: {fileID: 8000537772632175304, guid: a5883246fafd54c44a2ed0273c2b1894, type: 3}
      propertyPath: m_Materials.Array.data[1]
      value: 
      objectReference: {fileID: 2100000, guid: a05ee0b9de0a79e4b83597d99bf5dd5b, type: 2}
    - target: {fileID: 8000537772632175304, guid: a5883246fafd54c44a2ed0273c2b1894, type: 3}
      propertyPath: m_Materials.Array.data[2]
      value: 
      objectReference: {fileID: 2100000, guid: 46e5f6bfd5d20b64887a9086e9c2e7b6, type: 2}
    - target: {fileID: 8000537772661566663, guid: a5883246fafd54c44a2ed0273c2b1894, type: 3}
      propertyPath: m_Materials.Array.data[0]
      value: 
      objectReference: {fileID: 2100000, guid: 97c778629b6490e48a8d8f5b02158ce4, type: 2}
    - target: {fileID: 8000537772661566663, guid: a5883246fafd54c44a2ed0273c2b1894, type: 3}
      propertyPath: m_Materials.Array.data[1]
      value: 
      objectReference: {fileID: 2100000, guid: a05ee0b9de0a79e4b83597d99bf5dd5b, type: 2}
    - target: {fileID: 8000537772661566663, guid: a5883246fafd54c44a2ed0273c2b1894, type: 3}
      propertyPath: m_Materials.Array.data[2]
      value: 
      objectReference: {fileID: 2100000, guid: 46e5f6bfd5d20b64887a9086e9c2e7b6, type: 2}
    - target: {fileID: 8000537772708813007, guid: a5883246fafd54c44a2ed0273c2b1894, type: 3}
      propertyPath: m_Materials.Array.data[0]
      value: 
      objectReference: {fileID: 2100000, guid: 97c778629b6490e48a8d8f5b02158ce4, type: 2}
    - target: {fileID: 8000537772708813007, guid: a5883246fafd54c44a2ed0273c2b1894, type: 3}
      propertyPath: m_Materials.Array.data[1]
      value: 
      objectReference: {fileID: 2100000, guid: a05ee0b9de0a79e4b83597d99bf5dd5b, type: 2}
    - target: {fileID: 8000537772708813007, guid: a5883246fafd54c44a2ed0273c2b1894, type: 3}
      propertyPath: m_Materials.Array.data[2]
      value: 
      objectReference: {fileID: 2100000, guid: 46e5f6bfd5d20b64887a9086e9c2e7b6, type: 2}
    - target: {fileID: 8000537772873774020, guid: a5883246fafd54c44a2ed0273c2b1894, type: 3}
      propertyPath: m_Materials.Array.data[0]
      value: 
      objectReference: {fileID: 2100000, guid: 97c778629b6490e48a8d8f5b02158ce4, type: 2}
    - target: {fileID: 8000537772873774020, guid: a5883246fafd54c44a2ed0273c2b1894, type: 3}
      propertyPath: m_Materials.Array.data[1]
      value: 
      objectReference: {fileID: 2100000, guid: a05ee0b9de0a79e4b83597d99bf5dd5b, type: 2}
    - target: {fileID: 8000537772873774020, guid: a5883246fafd54c44a2ed0273c2b1894, type: 3}
      propertyPath: m_Materials.Array.data[2]
      value: 
      objectReference: {fileID: 2100000, guid: 46e5f6bfd5d20b64887a9086e9c2e7b6, type: 2}
    - target: {fileID: 8000537773148938750, guid: a5883246fafd54c44a2ed0273c2b1894, type: 3}
      propertyPath: m_Materials.Array.data[0]
      value: 
      objectReference: {fileID: 2100000, guid: 97c778629b6490e48a8d8f5b02158ce4, type: 2}
    - target: {fileID: 8000537773148938750, guid: a5883246fafd54c44a2ed0273c2b1894, type: 3}
      propertyPath: m_Materials.Array.data[1]
      value: 
      objectReference: {fileID: 2100000, guid: a05ee0b9de0a79e4b83597d99bf5dd5b, type: 2}
    - target: {fileID: 8000537773148938750, guid: a5883246fafd54c44a2ed0273c2b1894, type: 3}
      propertyPath: m_Materials.Array.data[2]
      value: 
      objectReference: {fileID: 2100000, guid: 46e5f6bfd5d20b64887a9086e9c2e7b6, type: 2}
    - target: {fileID: 8000537773193917646, guid: a5883246fafd54c44a2ed0273c2b1894, type: 3}
      propertyPath: m_Materials.Array.data[0]
      value: 
      objectReference: {fileID: 2100000, guid: 97c778629b6490e48a8d8f5b02158ce4, type: 2}
    - target: {fileID: 8000537773193917646, guid: a5883246fafd54c44a2ed0273c2b1894, type: 3}
      propertyPath: m_Materials.Array.data[1]
      value: 
      objectReference: {fileID: 2100000, guid: a05ee0b9de0a79e4b83597d99bf5dd5b, type: 2}
    - target: {fileID: 8000537773193917646, guid: a5883246fafd54c44a2ed0273c2b1894, type: 3}
      propertyPath: m_Materials.Array.data[2]
      value: 
      objectReference: {fileID: 2100000, guid: 46e5f6bfd5d20b64887a9086e9c2e7b6, type: 2}
    - target: {fileID: 8000537773224668350, guid: a5883246fafd54c44a2ed0273c2b1894, type: 3}
      propertyPath: m_Materials.Array.data[0]
      value: 
      objectReference: {fileID: 2100000, guid: 97c778629b6490e48a8d8f5b02158ce4, type: 2}
    - target: {fileID: 8000537773224668350, guid: a5883246fafd54c44a2ed0273c2b1894, type: 3}
      propertyPath: m_Materials.Array.data[1]
      value: 
      objectReference: {fileID: 2100000, guid: a05ee0b9de0a79e4b83597d99bf5dd5b, type: 2}
    - target: {fileID: 8000537773224668350, guid: a5883246fafd54c44a2ed0273c2b1894, type: 3}
      propertyPath: m_Materials.Array.data[2]
      value: 
      objectReference: {fileID: 2100000, guid: 46e5f6bfd5d20b64887a9086e9c2e7b6, type: 2}
    - target: {fileID: 8000537773423304117, guid: a5883246fafd54c44a2ed0273c2b1894, type: 3}
      propertyPath: m_Materials.Array.data[0]
      value: 
      objectReference: {fileID: 2100000, guid: 97c778629b6490e48a8d8f5b02158ce4, type: 2}
    - target: {fileID: 8000537773423304117, guid: a5883246fafd54c44a2ed0273c2b1894, type: 3}
      propertyPath: m_Materials.Array.data[1]
      value: 
      objectReference: {fileID: 2100000, guid: a05ee0b9de0a79e4b83597d99bf5dd5b, type: 2}
    - target: {fileID: 8000537773423304117, guid: a5883246fafd54c44a2ed0273c2b1894, type: 3}
      propertyPath: m_Materials.Array.data[2]
      value: 
      objectReference: {fileID: 2100000, guid: 46e5f6bfd5d20b64887a9086e9c2e7b6, type: 2}
    - target: {fileID: 8000537773448046033, guid: a5883246fafd54c44a2ed0273c2b1894, type: 3}
      propertyPath: m_Materials.Array.data[0]
      value: 
      objectReference: {fileID: 2100000, guid: 97c778629b6490e48a8d8f5b02158ce4, type: 2}
    - target: {fileID: 8000537773448046033, guid: a5883246fafd54c44a2ed0273c2b1894, type: 3}
      propertyPath: m_Materials.Array.data[1]
      value: 
      objectReference: {fileID: 2100000, guid: a05ee0b9de0a79e4b83597d99bf5dd5b, type: 2}
    - target: {fileID: 8000537773448046033, guid: a5883246fafd54c44a2ed0273c2b1894, type: 3}
      propertyPath: m_Materials.Array.data[2]
      value: 
      objectReference: {fileID: 2100000, guid: 46e5f6bfd5d20b64887a9086e9c2e7b6, type: 2}
    - target: {fileID: 8000537773472898214, guid: a5883246fafd54c44a2ed0273c2b1894, type: 3}
      propertyPath: m_Materials.Array.data[0]
      value: 
      objectReference: {fileID: 2100000, guid: 97c778629b6490e48a8d8f5b02158ce4, type: 2}
    - target: {fileID: 8000537773472898214, guid: a5883246fafd54c44a2ed0273c2b1894, type: 3}
      propertyPath: m_Materials.Array.data[1]
      value: 
      objectReference: {fileID: 2100000, guid: a05ee0b9de0a79e4b83597d99bf5dd5b, type: 2}
    - target: {fileID: 8000537773472898214, guid: a5883246fafd54c44a2ed0273c2b1894, type: 3}
      propertyPath: m_Materials.Array.data[2]
      value: 
      objectReference: {fileID: 2100000, guid: 46e5f6bfd5d20b64887a9086e9c2e7b6, type: 2}
    - target: {fileID: 8000537773646533365, guid: a5883246fafd54c44a2ed0273c2b1894, type: 3}
      propertyPath: m_Materials.Array.data[0]
      value: 
      objectReference: {fileID: 2100000, guid: 97c778629b6490e48a8d8f5b02158ce4, type: 2}
    - target: {fileID: 8000537773646533365, guid: a5883246fafd54c44a2ed0273c2b1894, type: 3}
      propertyPath: m_Materials.Array.data[1]
      value: 
      objectReference: {fileID: 2100000, guid: a05ee0b9de0a79e4b83597d99bf5dd5b, type: 2}
    - target: {fileID: 8000537773646533365, guid: a5883246fafd54c44a2ed0273c2b1894, type: 3}
      propertyPath: m_Materials.Array.data[2]
      value: 
      objectReference: {fileID: 2100000, guid: 46e5f6bfd5d20b64887a9086e9c2e7b6, type: 2}
    - target: {fileID: 8000537773656635642, guid: a5883246fafd54c44a2ed0273c2b1894, type: 3}
      propertyPath: m_Materials.Array.data[0]
      value: 
      objectReference: {fileID: 2100000, guid: 97c778629b6490e48a8d8f5b02158ce4, type: 2}
    - target: {fileID: 8000537773656635642, guid: a5883246fafd54c44a2ed0273c2b1894, type: 3}
      propertyPath: m_Materials.Array.data[1]
      value: 
      objectReference: {fileID: 2100000, guid: a05ee0b9de0a79e4b83597d99bf5dd5b, type: 2}
    - target: {fileID: 8000537773656635642, guid: a5883246fafd54c44a2ed0273c2b1894, type: 3}
      propertyPath: m_Materials.Array.data[2]
      value: 
      objectReference: {fileID: 2100000, guid: 46e5f6bfd5d20b64887a9086e9c2e7b6, type: 2}
    - target: {fileID: 8000537773688474888, guid: a5883246fafd54c44a2ed0273c2b1894, type: 3}
      propertyPath: m_Materials.Array.data[0]
      value: 
      objectReference: {fileID: 2100000, guid: 97c778629b6490e48a8d8f5b02158ce4, type: 2}
    - target: {fileID: 8000537773688474888, guid: a5883246fafd54c44a2ed0273c2b1894, type: 3}
      propertyPath: m_Materials.Array.data[1]
      value: 
      objectReference: {fileID: 2100000, guid: a05ee0b9de0a79e4b83597d99bf5dd5b, type: 2}
    - target: {fileID: 8000537773688474888, guid: a5883246fafd54c44a2ed0273c2b1894, type: 3}
      propertyPath: m_Materials.Array.data[2]
      value: 
      objectReference: {fileID: 2100000, guid: 46e5f6bfd5d20b64887a9086e9c2e7b6, type: 2}
    - target: {fileID: 8000537773816019677, guid: a5883246fafd54c44a2ed0273c2b1894, type: 3}
      propertyPath: m_Materials.Array.data[0]
      value: 
      objectReference: {fileID: 2100000, guid: 97c778629b6490e48a8d8f5b02158ce4, type: 2}
    - target: {fileID: 8000537773816019677, guid: a5883246fafd54c44a2ed0273c2b1894, type: 3}
      propertyPath: m_Materials.Array.data[1]
      value: 
      objectReference: {fileID: 2100000, guid: a05ee0b9de0a79e4b83597d99bf5dd5b, type: 2}
    - target: {fileID: 8000537773816019677, guid: a5883246fafd54c44a2ed0273c2b1894, type: 3}
      propertyPath: m_Materials.Array.data[2]
      value: 
      objectReference: {fileID: 2100000, guid: 46e5f6bfd5d20b64887a9086e9c2e7b6, type: 2}
    - target: {fileID: 8000537773977202759, guid: a5883246fafd54c44a2ed0273c2b1894, type: 3}
      propertyPath: m_Materials.Array.data[0]
      value: 
      objectReference: {fileID: 2100000, guid: 97c778629b6490e48a8d8f5b02158ce4, type: 2}
    - target: {fileID: 8000537773977202759, guid: a5883246fafd54c44a2ed0273c2b1894, type: 3}
      propertyPath: m_Materials.Array.data[1]
      value: 
      objectReference: {fileID: 2100000, guid: a05ee0b9de0a79e4b83597d99bf5dd5b, type: 2}
    - target: {fileID: 8000537773977202759, guid: a5883246fafd54c44a2ed0273c2b1894, type: 3}
      propertyPath: m_Materials.Array.data[2]
      value: 
      objectReference: {fileID: 2100000, guid: 46e5f6bfd5d20b64887a9086e9c2e7b6, type: 2}
    - target: {fileID: 8684266421476031185, guid: a5883246fafd54c44a2ed0273c2b1894, type: 3}
      propertyPath: m_Materials.Array.data[0]
      value: 
      objectReference: {fileID: 2100000, guid: a05ee0b9de0a79e4b83597d99bf5dd5b, type: 2}
    - target: {fileID: 8684266421476031185, guid: a5883246fafd54c44a2ed0273c2b1894, type: 3}
      propertyPath: m_Materials.Array.data[1]
      value: 
      objectReference: {fileID: 2100000, guid: 46e5f6bfd5d20b64887a9086e9c2e7b6, type: 2}
    - target: {fileID: 8684266421476031185, guid: a5883246fafd54c44a2ed0273c2b1894, type: 3}
      propertyPath: m_Materials.Array.data[2]
      value: 
      objectReference: {fileID: 2100000, guid: 97c778629b6490e48a8d8f5b02158ce4, type: 2}
    - target: {fileID: 8684266421884429031, guid: a5883246fafd54c44a2ed0273c2b1894, type: 3}
      propertyPath: m_Materials.Array.data[0]
      value: 
      objectReference: {fileID: 2100000, guid: a05ee0b9de0a79e4b83597d99bf5dd5b, type: 2}
    - target: {fileID: 8684266421884429031, guid: a5883246fafd54c44a2ed0273c2b1894, type: 3}
      propertyPath: m_Materials.Array.data[1]
      value: 
      objectReference: {fileID: 2100000, guid: 46e5f6bfd5d20b64887a9086e9c2e7b6, type: 2}
    - target: {fileID: 8684266421884429031, guid: a5883246fafd54c44a2ed0273c2b1894, type: 3}
      propertyPath: m_Materials.Array.data[2]
      value: 
      objectReference: {fileID: 2100000, guid: 97c778629b6490e48a8d8f5b02158ce4, type: 2}
    - target: {fileID: 8767788922156916547, guid: a5883246fafd54c44a2ed0273c2b1894, type: 3}
      propertyPath: m_Materials.Array.data[1]
      value: 
      objectReference: {fileID: 2100000, guid: 983243ead81870c46a81ba94f21940c6, type: 2}
    - target: {fileID: 8896260258110483327, guid: a5883246fafd54c44a2ed0273c2b1894, type: 3}
      propertyPath: m_Materials.Array.data[0]
      value: 
      objectReference: {fileID: 2100000, guid: 81c7ae2386b1abf40828c9c2bb29720d, type: 2}
    - target: {fileID: 8896260258377233239, guid: a5883246fafd54c44a2ed0273c2b1894, type: 3}
      propertyPath: m_Materials.Array.data[0]
      value: 
      objectReference: {fileID: 2100000, guid: 81c7ae2386b1abf40828c9c2bb29720d, type: 2}
    - target: {fileID: 8896260258377950649, guid: a5883246fafd54c44a2ed0273c2b1894, type: 3}
      propertyPath: m_Materials.Array.data[0]
      value: 
      objectReference: {fileID: 2100000, guid: 81c7ae2386b1abf40828c9c2bb29720d, type: 2}
    - target: {fileID: 8896260258473755389, guid: a5883246fafd54c44a2ed0273c2b1894, type: 3}
      propertyPath: m_Materials.Array.data[0]
      value: 
      objectReference: {fileID: 2100000, guid: 81c7ae2386b1abf40828c9c2bb29720d, type: 2}
    - target: {fileID: 8896260258611732203, guid: a5883246fafd54c44a2ed0273c2b1894, type: 3}
      propertyPath: m_Materials.Array.data[0]
      value: 
      objectReference: {fileID: 2100000, guid: 81c7ae2386b1abf40828c9c2bb29720d, type: 2}
    - target: {fileID: 8896260258837877303, guid: a5883246fafd54c44a2ed0273c2b1894, type: 3}
      propertyPath: m_Materials.Array.data[0]
      value: 
      objectReference: {fileID: 2100000, guid: 81c7ae2386b1abf40828c9c2bb29720d, type: 2}
    - target: {fileID: 8896260259028431620, guid: a5883246fafd54c44a2ed0273c2b1894, type: 3}
      propertyPath: m_Materials.Array.data[0]
      value: 
      objectReference: {fileID: 2100000, guid: 81c7ae2386b1abf40828c9c2bb29720d, type: 2}
    - target: {fileID: 8896260259210473842, guid: a5883246fafd54c44a2ed0273c2b1894, type: 3}
      propertyPath: m_Materials.Array.data[0]
      value: 
      objectReference: {fileID: 2100000, guid: 81c7ae2386b1abf40828c9c2bb29720d, type: 2}
    - target: {fileID: 8896260259282764324, guid: a5883246fafd54c44a2ed0273c2b1894, type: 3}
      propertyPath: m_Materials.Array.data[0]
      value: 
      objectReference: {fileID: 2100000, guid: 81c7ae2386b1abf40828c9c2bb29720d, type: 2}
    - target: {fileID: 8896260259325338664, guid: a5883246fafd54c44a2ed0273c2b1894, type: 3}
      propertyPath: m_Materials.Array.data[0]
      value: 
      objectReference: {fileID: 2100000, guid: 81c7ae2386b1abf40828c9c2bb29720d, type: 2}
    - target: {fileID: 8896260259481946717, guid: a5883246fafd54c44a2ed0273c2b1894, type: 3}
      propertyPath: m_Materials.Array.data[0]
      value: 
      objectReference: {fileID: 2100000, guid: 81c7ae2386b1abf40828c9c2bb29720d, type: 2}
    - target: {fileID: 8896260259503464631, guid: a5883246fafd54c44a2ed0273c2b1894, type: 3}
      propertyPath: m_Materials.Array.data[0]
      value: 
      objectReference: {fileID: 2100000, guid: 81c7ae2386b1abf40828c9c2bb29720d, type: 2}
    - target: {fileID: 8896260259589630338, guid: a5883246fafd54c44a2ed0273c2b1894, type: 3}
      propertyPath: m_Materials.Array.data[0]
      value: 
      objectReference: {fileID: 2100000, guid: 81c7ae2386b1abf40828c9c2bb29720d, type: 2}
    - target: {fileID: 8896260259592210196, guid: a5883246fafd54c44a2ed0273c2b1894, type: 3}
      propertyPath: m_Materials.Array.data[0]
      value: 
      objectReference: {fileID: 2100000, guid: 81c7ae2386b1abf40828c9c2bb29720d, type: 2}
    - target: {fileID: 8896260259655482145, guid: a5883246fafd54c44a2ed0273c2b1894, type: 3}
      propertyPath: m_Materials.Array.data[0]
      value: 
      objectReference: {fileID: 2100000, guid: 81c7ae2386b1abf40828c9c2bb29720d, type: 2}
    - target: {fileID: 8896260259665731780, guid: a5883246fafd54c44a2ed0273c2b1894, type: 3}
      propertyPath: m_Materials.Array.data[0]
      value: 
      objectReference: {fileID: 2100000, guid: 81c7ae2386b1abf40828c9c2bb29720d, type: 2}
    - target: {fileID: 8896260259703375629, guid: a5883246fafd54c44a2ed0273c2b1894, type: 3}
      propertyPath: m_Materials.Array.data[0]
      value: 
      objectReference: {fileID: 2100000, guid: 81c7ae2386b1abf40828c9c2bb29720d, type: 2}
    - target: {fileID: 8896260259925982898, guid: a5883246fafd54c44a2ed0273c2b1894, type: 3}
      propertyPath: m_Materials.Array.data[0]
      value: 
      objectReference: {fileID: 2100000, guid: 81c7ae2386b1abf40828c9c2bb29720d, type: 2}
    - target: {fileID: 8896260260032248809, guid: a5883246fafd54c44a2ed0273c2b1894, type: 3}
      propertyPath: m_Materials.Array.data[0]
      value: 
      objectReference: {fileID: 2100000, guid: 983243ead81870c46a81ba94f21940c6, type: 2}
    - target: {fileID: 8896260260065088938, guid: a5883246fafd54c44a2ed0273c2b1894, type: 3}
      propertyPath: m_Materials.Array.data[0]
      value: 
      objectReference: {fileID: 2100000, guid: 81c7ae2386b1abf40828c9c2bb29720d, type: 2}
    - target: {fileID: 9223263376438915286, guid: a5883246fafd54c44a2ed0273c2b1894, type: 3}
      propertyPath: m_Materials.Array.data[0]
      value: 
      objectReference: {fileID: 2100000, guid: e368481ffd59f014283c07d09775161d, type: 2}
    - target: {fileID: 9223263376504567635, guid: a5883246fafd54c44a2ed0273c2b1894, type: 3}
      propertyPath: m_Materials.Array.data[0]
      value: 
      objectReference: {fileID: 2100000, guid: e368481ffd59f014283c07d09775161d, type: 2}
    - target: {fileID: 9223263376533978508, guid: a5883246fafd54c44a2ed0273c2b1894, type: 3}
      propertyPath: m_Materials.Array.data[0]
      value: 
      objectReference: {fileID: 2100000, guid: e368481ffd59f014283c07d09775161d, type: 2}
    - target: {fileID: 9223263376534335718, guid: a5883246fafd54c44a2ed0273c2b1894, type: 3}
      propertyPath: m_Materials.Array.data[0]
      value: 
      objectReference: {fileID: 2100000, guid: e368481ffd59f014283c07d09775161d, type: 2}
    - target: {fileID: 9223263376574718467, guid: a5883246fafd54c44a2ed0273c2b1894, type: 3}
      propertyPath: m_Materials.Array.data[0]
      value: 
      objectReference: {fileID: 2100000, guid: e368481ffd59f014283c07d09775161d, type: 2}
    - target: {fileID: 9223263376908174268, guid: a5883246fafd54c44a2ed0273c2b1894, type: 3}
      propertyPath: m_Materials.Array.data[0]
      value: 
      objectReference: {fileID: 2100000, guid: e368481ffd59f014283c07d09775161d, type: 2}
    - target: {fileID: 9223263376952332999, guid: a5883246fafd54c44a2ed0273c2b1894, type: 3}
      propertyPath: m_Materials.Array.data[0]
      value: 
      objectReference: {fileID: 2100000, guid: e368481ffd59f014283c07d09775161d, type: 2}
    - target: {fileID: 9223263377086234415, guid: a5883246fafd54c44a2ed0273c2b1894, type: 3}
      propertyPath: m_Materials.Array.data[0]
      value: 
      objectReference: {fileID: 2100000, guid: e368481ffd59f014283c07d09775161d, type: 2}
    - target: {fileID: 9223263377144905303, guid: a5883246fafd54c44a2ed0273c2b1894, type: 3}
      propertyPath: m_Materials.Array.data[0]
      value: 
      objectReference: {fileID: 2100000, guid: e368481ffd59f014283c07d09775161d, type: 2}
    - target: {fileID: 9223263377184445660, guid: a5883246fafd54c44a2ed0273c2b1894, type: 3}
      propertyPath: m_Materials.Array.data[0]
      value: 
      objectReference: {fileID: 2100000, guid: e368481ffd59f014283c07d09775161d, type: 2}
    - target: {fileID: 9223263377193392927, guid: a5883246fafd54c44a2ed0273c2b1894, type: 3}
      propertyPath: m_Materials.Array.data[0]
      value: 
      objectReference: {fileID: 2100000, guid: e368481ffd59f014283c07d09775161d, type: 2}
    - target: {fileID: 9223263377197424691, guid: a5883246fafd54c44a2ed0273c2b1894, type: 3}
      propertyPath: m_Materials.Array.data[0]
      value: 
      objectReference: {fileID: 2100000, guid: e368481ffd59f014283c07d09775161d, type: 2}
    - target: {fileID: 9223263377217667444, guid: a5883246fafd54c44a2ed0273c2b1894, type: 3}
      propertyPath: m_Materials.Array.data[0]
      value: 
      objectReference: {fileID: 2100000, guid: e368481ffd59f014283c07d09775161d, type: 2}
    - target: {fileID: 9223263377535707562, guid: a5883246fafd54c44a2ed0273c2b1894, type: 3}
      propertyPath: m_Materials.Array.data[0]
      value: 
      objectReference: {fileID: 2100000, guid: e368481ffd59f014283c07d09775161d, type: 2}
    - target: {fileID: 9223263377777017103, guid: a5883246fafd54c44a2ed0273c2b1894, type: 3}
      propertyPath: m_Materials.Array.data[0]
      value: 
      objectReference: {fileID: 2100000, guid: e368481ffd59f014283c07d09775161d, type: 2}
    - target: {fileID: 9223263378056562657, guid: a5883246fafd54c44a2ed0273c2b1894, type: 3}
      propertyPath: m_Materials.Array.data[0]
      value: 
      objectReference: {fileID: 2100000, guid: e368481ffd59f014283c07d09775161d, type: 2}
    - target: {fileID: 9223263378101836384, guid: a5883246fafd54c44a2ed0273c2b1894, type: 3}
      propertyPath: m_Materials.Array.data[0]
      value: 
      objectReference: {fileID: 2100000, guid: e368481ffd59f014283c07d09775161d, type: 2}
    - target: {fileID: 9223263378113644223, guid: a5883246fafd54c44a2ed0273c2b1894, type: 3}
      propertyPath: m_Materials.Array.data[0]
      value: 
      objectReference: {fileID: 2100000, guid: e368481ffd59f014283c07d09775161d, type: 2}
    - target: {fileID: 9223263378245877349, guid: a5883246fafd54c44a2ed0273c2b1894, type: 3}
      propertyPath: m_Materials.Array.data[0]
      value: 
      objectReference: {fileID: 2100000, guid: e368481ffd59f014283c07d09775161d, type: 2}
    - target: {fileID: 9223263378286019636, guid: a5883246fafd54c44a2ed0273c2b1894, type: 3}
      propertyPath: m_Materials.Array.data[0]
      value: 
      objectReference: {fileID: 2100000, guid: e368481ffd59f014283c07d09775161d, type: 2}
    - target: {fileID: 9223263378291416573, guid: a5883246fafd54c44a2ed0273c2b1894, type: 3}
      propertyPath: m_Materials.Array.data[0]
      value: 
      objectReference: {fileID: 2100000, guid: e368481ffd59f014283c07d09775161d, type: 2}
    - target: {fileID: 9223263378356759017, guid: a5883246fafd54c44a2ed0273c2b1894, type: 3}
      propertyPath: m_Materials.Array.data[0]
      value: 
      objectReference: {fileID: 2100000, guid: e368481ffd59f014283c07d09775161d, type: 2}
    m_RemovedComponents: []
  m_SourcePrefab: {fileID: 100100000, guid: a5883246fafd54c44a2ed0273c2b1894, type: 3}
