%YAML 1.1
%TAG !u! tag:unity3d.com,2011:
--- !u!1 &5723510770298708863
GameObject:
  m_ObjectHideFlags: 0
  m_CorrespondingSourceObject: {fileID: 0}
  m_PrefabInstance: {fileID: 0}
  m_PrefabAsset: {fileID: 0}
  serializedVersion: 6
  m_Component:
  - component: {fileID: 5723510770298708860}
  m_Layer: 0
  m_Name: BowlOfBadges
  m_TagString: Untagged
  m_Icon: {fileID: 0}
  m_NavMeshLayer: 0
  m_StaticEditorFlags: 0
  m_IsActive: 1
--- !u!4 &5723510770298708860
Transform:
  m_ObjectHideFlags: 0
  m_CorrespondingSourceObject: {fileID: 0}
  m_PrefabInstance: {fileID: 0}
  m_PrefabAsset: {fileID: 0}
  m_GameObject: {fileID: 5723510770298708863}
  m_LocalRotation: {x: 0, y: 0, z: 0, w: 1}
  m_LocalPosition: {x: 0, y: 0, z: 0}
  m_LocalScale: {x: 1, y: 1, z: 1}
  m_Children:
  - {fileID: 5253246403977497728}
  m_Father: {fileID: 0}
  m_RootOrder: 0
  m_LocalEulerAnglesHint: {x: 0, y: 0, z: 0}
--- !u!1001 &5723510771914124139
PrefabInstance:
  m_ObjectHideFlags: 0
  serializedVersion: 2
  m_Modification:
    m_TransformParent: {fileID: 5723510770298708860}
    m_Modifications:
    - target: {fileID: -8679921383154817045, guid: e1a1d159c734845cc8d8cf0358e8e129, type: 3}
      propertyPath: m_RootOrder
      value: 0
      objectReference: {fileID: 0}
    - target: {fileID: -8679921383154817045, guid: e1a1d159c734845cc8d8cf0358e8e129, type: 3}
      propertyPath: m_LocalPosition.x
      value: -0
      objectReference: {fileID: 0}
    - target: {fileID: -8679921383154817045, guid: e1a1d159c734845cc8d8cf0358e8e129, type: 3}
      propertyPath: m_LocalPosition.y
      value: 0.044
      objectReference: {fileID: 0}
    - target: {fileID: -8679921383154817045, guid: e1a1d159c734845cc8d8cf0358e8e129, type: 3}
      propertyPath: m_LocalPosition.z
      value: 0
      objectReference: {fileID: 0}
    - target: {fileID: -8679921383154817045, guid: e1a1d159c734845cc8d8cf0358e8e129, type: 3}
      propertyPath: m_LocalRotation.w
      value: 1
      objectReference: {fileID: 0}
    - target: {fileID: -8679921383154817045, guid: e1a1d159c734845cc8d8cf0358e8e129, type: 3}
      propertyPath: m_LocalRotation.x
      value: 0
      objectReference: {fileID: 0}
    - target: {fileID: -8679921383154817045, guid: e1a1d159c734845cc8d8cf0358e8e129, type: 3}
      propertyPath: m_LocalRotation.y
      value: -0
      objectReference: {fileID: 0}
    - target: {fileID: -8679921383154817045, guid: e1a1d159c734845cc8d8cf0358e8e129, type: 3}
      propertyPath: m_LocalRotation.z
      value: -0
      objectReference: {fileID: 0}
    - target: {fileID: -8679921383154817045, guid: e1a1d159c734845cc8d8cf0358e8e129, type: 3}
      propertyPath: m_LocalEulerAnglesHint.x
      value: 0
      objectReference: {fileID: 0}
    - target: {fileID: -8679921383154817045, guid: e1a1d159c734845cc8d8cf0358e8e129, type: 3}
      propertyPath: m_LocalEulerAnglesHint.y
      value: 0
      objectReference: {fileID: 0}
    - target: {fileID: -8679921383154817045, guid: e1a1d159c734845cc8d8cf0358e8e129, type: 3}
      propertyPath: m_LocalEulerAnglesHint.z
      value: 0
      objectReference: {fileID: 0}
    - target: {fileID: -7635826562936255635, guid: e1a1d159c734845cc8d8cf0358e8e129, type: 3}
      propertyPath: m_Materials.Array.data[0]
      value: 
      objectReference: {fileID: 2100000, guid: 15b920eaefbfe46e29805a2d6c618959, type: 2}
    - target: {fileID: 919132149155446097, guid: e1a1d159c734845cc8d8cf0358e8e129, type: 3}
      propertyPath: m_Name
      value: bowl-of-badges
      objectReference: {fileID: 0}
    m_RemovedComponents: []
  m_SourcePrefab: {fileID: 100100000, guid: e1a1d159c734845cc8d8cf0358e8e129, type: 3}
--- !u!4 &5253246403977497728 stripped
Transform:
  m_CorrespondingSourceObject: {fileID: -8679921383154817045, guid: e1a1d159c734845cc8d8cf0358e8e129, type: 3}
  m_PrefabInstance: {fileID: 5723510771914124139}
  m_PrefabAsset: {fileID: 0}
