# Blender v2.92.0 OBJ File: 'Polish.blend'
# www.blender.org
o Cylinder_Cylinder.001
v 0.000000 0.002598 -0.100011
v 0.000000 0.271652 -0.102365
v 0.030905 0.002598 -0.095116
v 0.031632 0.271652 -0.097354
v 0.058785 0.002598 -0.080910
v 0.060168 0.271652 -0.082815
v 0.080910 0.002598 -0.058785
v 0.082815 0.271652 -0.060168
v 0.095116 0.002598 -0.030905
v 0.097354 0.271652 -0.031632
v 0.100011 0.002598 0.000000
v 0.102365 0.271652 0.000000
v 0.095116 0.002598 0.030905
v 0.097354 0.271652 0.031632
v 0.080910 0.002598 0.058785
v 0.082815 0.271652 0.060168
v 0.058785 0.002598 0.080910
v 0.060168 0.271652 0.082815
v 0.030905 0.002598 0.095116
v 0.031632 0.271652 0.097355
v -0.000000 0.002598 0.100011
v -0.000000 0.271652 0.102365
v -0.030905 0.002598 0.095116
v -0.031632 0.271652 0.097354
v -0.058785 0.002598 0.080910
v -0.060168 0.271652 0.082815
v -0.080910 0.002598 0.058785
v -0.082815 0.271652 0.060168
v -0.095116 0.002598 0.030905
v -0.097355 0.271652 0.031632
v -0.100011 0.002598 -0.000000
v -0.102365 0.271652 -0.000000
v -0.095116 0.002598 -0.030905
v -0.097354 0.271652 -0.031632
v -0.080910 0.002598 -0.058785
v -0.082815 0.271652 -0.060168
v -0.058785 0.002598 -0.080910
v -0.060168 0.271652 -0.082815
v -0.030905 0.002598 -0.095116
v -0.031632 0.271652 -0.097355
v 0.028082 0.285423 -0.093492
v -0.002295 0.285423 -0.098303
v 0.055486 0.285423 -0.079529
v 0.077234 0.285423 -0.057781
v 0.091197 0.285423 -0.030377
v 0.096008 0.285423 0.000000
v 0.091197 0.285423 0.030377
v 0.077234 0.285423 0.057781
v 0.055486 0.285423 0.079529
v 0.028082 0.285423 0.093492
v -0.002295 0.285423 0.098303
v -0.032673 0.285423 0.093492
v -0.060076 0.285423 0.079529
v -0.081824 0.285423 0.057781
v -0.095787 0.285423 0.030377
v -0.100598 0.285423 -0.000000
v -0.095787 0.285423 -0.030377
v -0.081824 0.285423 -0.057781
v -0.060076 0.285423 -0.079529
v -0.032672 0.285423 -0.093492
v 0.028082 0.479366 -0.093492
v -0.002295 0.479366 -0.098303
v 0.055486 0.479366 -0.079529
v 0.077234 0.479366 -0.057781
v 0.091197 0.479366 -0.030377
v 0.096008 0.479366 0.000000
v 0.091197 0.479366 0.030377
v 0.077234 0.479366 0.057781
v 0.055486 0.479366 0.079529
v 0.028082 0.479366 0.093492
v -0.002295 0.479366 0.098303
v -0.032673 0.479366 0.093492
v -0.060076 0.479366 0.079529
v -0.081824 0.479366 0.057781
v -0.095787 0.479366 0.030377
v -0.100598 0.479366 -0.000000
v -0.095787 0.479366 -0.030377
v -0.081824 0.479366 -0.057781
v -0.060076 0.479366 -0.079529
v -0.032672 0.479366 -0.093492
v 0.027153 0.486825 -0.090633
v -0.002295 0.486825 -0.095297
v 0.053719 0.486825 -0.077097
v 0.074802 0.486825 -0.056014
v 0.088337 0.486825 -0.029448
v 0.093002 0.486825 0.000000
v 0.088337 0.486825 0.029448
v 0.074802 0.486825 0.056014
v 0.053719 0.486825 0.077097
v 0.027153 0.486825 0.090633
v -0.002295 0.486825 0.095297
v -0.031744 0.486825 0.090633
v -0.058309 0.486825 0.077097
v -0.079392 0.486825 0.056014
v -0.092928 0.486825 0.029448
v -0.097592 0.486825 -0.000000
v -0.092928 0.486825 -0.029448
v -0.079392 0.486825 -0.056014
v -0.058309 0.486825 -0.077097
v -0.031743 0.486825 -0.090633
v 0.025205 0.492276 -0.084638
v -0.002295 0.492276 -0.088994
v 0.050014 0.492276 -0.071998
v 0.069702 0.492276 -0.052309
v 0.082343 0.492276 -0.027501
v 0.086699 0.492276 0.000000
v 0.082343 0.492276 0.027501
v 0.069702 0.492276 0.052309
v 0.050014 0.492276 0.071998
v 0.025205 0.492276 0.084638
v -0.002295 0.492276 0.088994
v -0.029796 0.492276 0.084638
v -0.054605 0.492276 0.071998
v -0.074293 0.492276 0.052309
v -0.086934 0.492276 0.027501
v -0.091289 0.492276 -0.000000
v -0.086933 0.492276 -0.027501
v -0.074293 0.492276 -0.052309
v -0.054604 0.492276 -0.071998
v -0.029796 0.492276 -0.084638
v 0.000000 0.010336 -0.102365
v 0.031632 0.010336 -0.097354
v 0.060168 0.010336 -0.082815
v 0.082815 0.010336 -0.060168
v 0.097354 0.010336 -0.031632
v 0.102365 0.010336 0.000000
v 0.097354 0.010336 0.031632
v 0.082815 0.010336 0.060168
v 0.060168 0.010336 0.082815
v 0.031632 0.010336 0.097355
v -0.000000 0.010336 0.102365
v -0.031632 0.010336 0.097354
v -0.060168 0.010336 0.082815
v -0.082815 0.010336 0.060168
v -0.097355 0.010336 0.031632
v -0.102365 0.010336 -0.000000
v -0.097354 0.010336 -0.031632
v -0.082815 0.010336 -0.060168
v -0.060168 0.010336 -0.082815
v -0.031632 0.010336 -0.097355
vt 0.342067 0.015802
vt 0.342067 0.549450
vt 0.307649 0.549450
vt 0.307649 0.015802
vt 0.273363 0.549450
vt 0.273363 0.015802
vt 0.239187 0.549450
vt 0.239187 0.015802
vt 0.205089 0.549450
vt 0.205089 0.015802
vt 0.171033 0.549450
vt 0.171033 0.015802
vt 0.136978 0.549450
vt 0.136978 0.015802
vt 0.102880 0.549450
vt 0.102880 0.015802
vt 0.068704 0.549450
vt 0.068704 0.015802
vt 0.034418 0.549450
vt 0.034418 0.015802
vt 0.000000 0.549450
vt 0.000000 0.015802
vt 0.689864 0.015802
vt 0.689864 0.549450
vt 0.655306 0.549450
vt 0.655306 0.015802
vt 0.620613 0.549450
vt 0.620613 0.015802
vt 0.585803 0.549450
vt 0.585803 0.015802
vt 0.550907 0.549450
vt 0.550907 0.015802
vt 0.515966 0.549450
vt 0.515966 0.015802
vt 0.481024 0.549450
vt 0.481024 0.015802
vt 0.446128 0.549450
vt 0.446128 0.015802
vt 0.411318 0.549450
vt 0.411318 0.015802
vt 0.344571 0.577573
vt 0.310029 0.577573
vt 0.376625 0.549450
vt 0.376625 0.015802
vt 0.747155 0.332771
vt 0.720458 0.296026
vt 0.706423 0.252831
vt 0.706423 0.207412
vt 0.720458 0.164216
vt 0.747155 0.127471
vt 0.783899 0.100775
vt 0.827095 0.086740
vt 0.872514 0.086740
vt 0.915710 0.100775
vt 0.952454 0.127471
vt 0.979151 0.164216
vt 0.993186 0.207412
vt 0.993186 0.252831
vt 0.979151 0.296026
vt 0.952454 0.332771
vt 0.915710 0.359468
vt 0.872514 0.373503
vt 0.827095 0.373503
vt 0.783899 0.359467
vt 0.481800 0.577573
vt 0.515966 0.577573
vt 0.515966 0.973635
vt 0.481800 0.973635
vt 0.618583 0.577573
vt 0.584327 0.577573
vt 0.447604 0.577573
vt 0.413348 0.577573
vt 0.171033 0.577573
vt 0.136206 0.577573
vt 0.687360 0.577573
vt 0.652922 0.577573
vt 0.240655 0.577573
vt 0.205861 0.577573
vt 0.066682 0.577573
vt 0.032038 0.577573
vt 0.550131 0.577573
vt 0.379009 0.577573
vt 0.275385 0.577573
vt 0.101412 0.577573
vt 0.724282 0.549450
vt 0.721903 0.577573
vt 0.584327 0.973635
vt 0.618583 0.973635
vt 0.618556 0.988868
vt 0.584307 0.988868
vt 0.066682 0.973635
vt 0.032038 0.973635
vt 0.310029 0.973635
vt 0.275385 0.973635
vt 0.447604 0.973635
vt 0.721903 0.973635
vt 0.687360 0.973635
vt 0.240655 0.973635
vt 0.413348 0.973635
vt 0.652922 0.973635
vt 0.205861 0.973635
vt 0.379009 0.973635
vt 0.171033 0.973635
vt 0.344571 0.973635
vt 0.136206 0.973635
vt 0.550131 0.973635
vt 0.101412 0.973635
vt 0.687326 0.988868
vt 0.721870 0.988868
vt 0.721795 1.000000
vt 0.687248 1.000000
vt 0.171033 0.988868
vt 0.136195 0.988868
vt 0.550120 0.988868
vt 0.101392 0.988868
vt 0.515966 0.988868
vt 0.066654 0.988868
vt 0.344605 0.988868
vt 0.310061 0.988868
vt 0.481811 0.988868
vt 0.032006 0.988868
vt 0.275413 0.988868
vt 0.447624 0.988868
vt 0.240675 0.988868
vt 0.413375 0.988868
vt 0.652890 0.988868
vt 0.205872 0.988868
vt 0.379041 0.988868
vt 0.737265 0.550933
vt 0.749754 0.512495
vt 0.773510 0.479798
vt 0.806207 0.456042
vt 0.844644 0.443553
vt 0.885060 0.443553
vt 0.923497 0.456042
vt 0.956194 0.479798
vt 0.979950 0.512495
vt 0.992439 0.550933
vt 0.992439 0.591348
vt 0.979950 0.629786
vt 0.956194 0.662483
vt 0.923497 0.686239
vt 0.885060 0.698728
vt 0.844644 0.698728
vt 0.806206 0.686239
vt 0.773509 0.662483
vt 0.749754 0.629786
vt 0.737265 0.591348
vt 0.275477 1.000000
vt 0.240722 1.000000
vt 0.447669 1.000000
vt 0.413437 1.000000
vt 0.652816 1.000000
vt 0.205896 1.000000
vt 0.379115 1.000000
vt 0.618494 1.000000
vt 0.171033 1.000000
vt 0.344683 1.000000
vt 0.584262 1.000000
vt 0.136171 1.000000
vt 0.550097 1.000000
vt 0.101345 1.000000
vt 0.515966 1.000000
vt 0.066590 1.000000
vt 0.310136 1.000000
vt 0.481834 1.000000
vt 0.031931 1.000000
vt 0.376592 0.000000
vt 0.342033 0.000000
vt 0.411290 0.000000
vt 0.446108 0.000000
vt 0.481013 0.000000
vt 0.515966 0.000000
vt 0.550918 0.000000
vt 0.585823 0.000000
vt 0.620641 0.000000
vt 0.655339 0.000000
vt 0.689898 0.000000
vt 0.034449 0.000000
vt 0.000034 0.000000
vt 0.068731 0.000000
vt 0.102900 0.000000
vt 0.136988 0.000000
vt 0.171033 0.000000
vt 0.205079 0.000000
vt 0.239167 0.000000
vt 0.273336 0.000000
vt 0.307618 0.000000
vn 0.0000 -0.1450 -0.9894
vn 0.0072 0.1420 -0.9898
vn 0.3111 0.1643 -0.9360
vn 0.3057 -0.1450 -0.9410
vn 0.5822 0.1834 -0.7920
vn 0.5816 -0.1450 -0.8004
vn 0.7953 0.1980 -0.5730
vn 0.8004 -0.1450 -0.5816
vn 0.9310 0.2071 -0.3004
vn 0.9410 -0.1450 -0.3057
vn 0.9776 0.2102 0.0000
vn 0.9894 -0.1450 0.0000
vn 0.9310 0.2071 0.3004
vn 0.9410 -0.1450 0.3057
vn 0.7953 0.1980 0.5730
vn 0.8004 -0.1450 0.5816
vn 0.5822 0.1834 0.7920
vn 0.5816 -0.1450 0.8004
vn 0.3111 0.1643 0.9360
vn 0.3057 -0.1450 0.9410
vn 0.0072 0.1420 0.9898
vn 0.0000 -0.1450 0.9894
vn -0.3001 0.1188 0.9465
vn -0.3057 -0.1450 0.9410
vn -0.5800 0.0970 0.8088
vn -0.5816 -0.1450 0.8004
vn -0.8037 0.0791 0.5896
vn -0.8004 -0.1450 0.5816
vn -0.9481 0.0674 0.3106
vn -0.9410 -0.1450 0.3057
vn -0.9980 0.0633 0.0000
vn -0.9894 -0.1450 0.0000
vn -0.9481 0.0674 -0.3106
vn -0.9410 -0.1450 -0.3057
vn -0.8037 0.0791 -0.5896
vn -0.8004 -0.1450 -0.5816
vn -0.5799 0.0970 -0.8088
vn -0.5816 -0.1450 -0.8004
vn -0.0081 0.1437 -0.9896
vn 0.2974 0.1676 -0.9399
vn -0.3000 0.1188 -0.9465
vn -0.3057 -0.1450 -0.9410
vn 0.0000 -0.7756 -0.6312
vn 0.1950 -0.7756 -0.6003
vn 0.3710 -0.7756 -0.5106
vn 0.5106 -0.7756 -0.3710
vn 0.6003 -0.7756 -0.1950
vn 0.6312 -0.7756 0.0000
vn 0.6003 -0.7756 0.1950
vn 0.5106 -0.7756 0.3710
vn 0.3710 -0.7756 0.5106
vn 0.1950 -0.7756 0.6003
vn 0.0000 -0.7756 0.6312
vn -0.1950 -0.7756 0.6003
vn -0.3710 -0.7756 0.5106
vn -0.5106 -0.7756 0.3710
vn -0.6003 -0.7756 0.1950
vn -0.6312 -0.7756 0.0000
vn -0.6003 -0.7756 -0.1950
vn -0.5106 -0.7756 -0.3710
vn -0.3710 -0.7756 -0.5106
vn -0.1950 -0.7756 -0.6003
vn -0.9496 0.0681 -0.3058
vn -0.9979 0.0641 0.0000
vn -0.9824 0.1869 0.0000
vn -0.9343 0.1869 -0.3036
vn -0.5904 0.0971 0.8012
vn -0.8093 0.0794 0.5819
vn -0.8093 0.0794 -0.5819
vn -0.5904 0.0971 -0.8012
vn 0.9757 0.2192 0.0000
vn 0.9279 0.2156 0.3040
vn -0.0081 0.1437 0.9896
vn -0.3142 0.1193 0.9418
vn 0.7891 0.2052 -0.5789
vn 0.9279 0.2156 -0.3040
vn 0.5721 0.1888 0.7982
vn 0.2974 0.1676 0.9399
vn -0.9496 0.0681 0.3058
vn -0.3142 0.1193 -0.9418
vn 0.5721 0.1888 -0.7982
vn 0.7891 0.2052 0.5789
vn -0.7947 0.1869 0.5774
vn -0.5774 0.1869 0.7947
vn -0.4827 0.5705 0.6644
vn -0.6644 0.5705 0.4827
vn 0.5774 0.1869 0.7947
vn 0.3036 0.1869 0.9343
vn 0.3036 0.1869 -0.9343
vn 0.5774 0.1869 -0.7947
vn -0.7947 0.1869 -0.5774
vn 0.0000 0.1869 0.9824
vn 0.7947 0.1869 -0.5774
vn -0.5774 0.1869 -0.7947
vn -0.3036 0.1869 0.9343
vn 0.9343 0.1869 -0.3036
vn -0.3036 0.1869 -0.9343
vn 0.9824 0.1869 0.0000
vn 0.0000 0.1869 -0.9824
vn 0.9343 0.1869 0.3036
vn -0.9343 0.1869 0.3036
vn 0.7947 0.1869 0.5774
vn 0.0000 0.5705 0.8213
vn 0.2538 0.5705 0.7811
vn 0.1171 0.9254 0.3604
vn 0.0000 0.9254 0.3789
vn 0.8213 0.5705 0.0000
vn 0.7811 0.5705 0.2538
vn -0.7811 0.5705 0.2538
vn 0.6644 0.5705 0.4827
vn -0.8213 0.5705 0.0000
vn 0.4827 0.5705 0.6644
vn 0.0000 0.5705 -0.8213
vn 0.2538 0.5705 -0.7811
vn -0.7811 0.5705 -0.2538
vn 0.4827 0.5705 -0.6644
vn -0.6644 0.5705 -0.4827
vn 0.6644 0.5705 -0.4827
vn -0.4827 0.5705 -0.6644
vn -0.2538 0.5705 0.7811
vn 0.7811 0.5705 -0.2538
vn -0.2538 0.5705 -0.7811
vn 0.1171 0.9254 -0.3604
vn 0.0000 0.9254 -0.3789
vn -0.1171 0.9254 -0.3604
vn -0.2227 0.9254 -0.3065
vn -0.3065 0.9254 -0.2227
vn -0.3604 0.9254 -0.1171
vn -0.3789 0.9254 0.0000
vn -0.3604 0.9254 0.1171
vn -0.3065 0.9254 0.2227
vn -0.2227 0.9254 0.3065
vn -0.1171 0.9254 0.3604
vn 0.2227 0.9254 0.3065
vn 0.3065 0.9254 0.2227
vn 0.3604 0.9254 0.1171
vn 0.3789 0.9254 0.0000
vn 0.3604 0.9254 -0.1171
vn 0.3065 0.9254 -0.2227
vn 0.2227 0.9254 -0.3065
s 1
f 121/1/1 2/2/2 4/3/3 122/4/4
f 122/4/4 4/3/3 6/5/5 123/6/6
f 123/6/6 6/5/5 8/7/7 124/8/8
f 124/8/8 8/7/7 10/9/9 125/10/10
f 125/10/10 10/9/9 12/11/11 126/12/12
f 126/12/12 12/11/11 14/13/13 127/14/14
f 127/14/14 14/13/13 16/15/15 128/16/16
f 128/16/16 16/15/15 18/17/17 129/18/18
f 129/18/18 18/17/17 20/19/19 130/20/20
f 130/20/20 20/19/19 22/21/21 131/22/22
f 131/23/22 22/24/21 24/25/23 132/26/24
f 132/26/24 24/25/23 26/27/25 133/28/26
f 133/28/26 26/27/25 28/29/27 134/30/28
f 134/30/28 28/29/27 30/31/29 135/32/30
f 135/32/30 30/31/29 32/33/31 136/34/32
f 136/34/32 32/33/31 34/35/33 137/36/34
f 137/36/34 34/35/33 36/37/35 138/38/36
f 138/38/36 36/37/35 38/39/37 139/40/38
f 4/3/3 2/2/2 42/41/39 41/42/40
f 139/40/38 38/39/37 40/43/41 140/44/42
f 140/44/42 40/43/41 2/2/2 121/1/1
f 1/45/43 3/46/44 5/47/45 7/48/46 9/49/47 11/50/48 13/51/49 15/52/50 17/53/51 19/54/52 21/55/53 23/56/54 25/57/55 27/58/56 29/59/57 31/60/58 33/61/59 35/62/60 37/63/61 39/64/62
f 57/65/63 56/66/64 76/67/65 77/68/66
f 28/29/27 26/27/25 53/69/67 54/70/68
f 38/39/37 36/37/35 58/71/69 59/72/70
f 14/13/13 12/11/11 46/73/71 47/74/72
f 24/25/23 22/24/21 51/75/73 52/76/74
f 34/35/33 32/33/31 56/66/64 57/65/63
f 10/9/9 8/7/7 44/77/75 45/78/76
f 20/19/19 18/17/17 49/79/77 50/80/78
f 30/31/29 28/29/27 54/70/68 55/81/79
f 40/43/41 38/39/37 59/72/70 60/82/80
f 6/5/5 4/3/3 41/42/40 43/83/81
f 16/15/15 14/13/13 47/74/72 48/84/82
f 26/27/25 24/25/23 52/76/74 53/69/67
f 36/37/35 34/35/33 57/65/63 58/71/69
f 12/11/11 10/9/9 45/78/76 46/73/71
f 22/24/21 20/85/19 50/86/78 51/75/73
f 32/33/31 30/31/29 55/81/79 56/66/64
f 2/2/2 40/43/41 60/82/80 42/41/39
f 8/7/7 6/5/5 43/83/81 44/77/75
f 18/17/17 16/15/15 48/84/82 49/79/77
f 74/87/83 73/88/84 93/89/85 94/90/86
f 50/80/78 49/79/77 69/91/87 70/92/88
f 43/83/81 41/42/40 61/93/89 63/94/90
f 58/71/69 57/65/63 77/68/66 78/95/91
f 51/75/73 50/86/78 70/96/88 71/97/92
f 44/77/75 43/83/81 63/94/90 64/98/93
f 59/72/70 58/71/69 78/95/91 79/99/94
f 52/76/74 51/75/73 71/97/92 72/100/95
f 45/78/76 44/77/75 64/98/93 65/101/96
f 60/82/80 59/72/70 79/99/94 80/102/97
f 53/69/67 52/76/74 72/100/95 73/88/84
f 46/73/71 45/78/76 65/101/96 66/103/98
f 42/41/39 60/82/80 80/102/97 62/104/99
f 54/70/68 53/69/67 73/88/84 74/87/83
f 47/74/72 46/73/71 66/103/98 67/105/100
f 55/81/79 54/70/68 74/87/83 75/106/101
f 48/84/82 47/74/72 67/105/100 68/107/102
f 56/66/64 55/81/79 75/106/101 76/67/65
f 49/79/77 48/84/82 68/107/102 69/91/87
f 41/42/40 42/41/39 62/104/99 61/93/89
f 91/108/103 90/109/104 110/110/105 111/111/106
f 67/105/100 66/103/98 86/112/107 87/113/108
f 75/106/101 74/87/83 94/90/86 95/114/109
f 68/107/102 67/105/100 87/113/108 88/115/110
f 76/67/65 75/106/101 95/114/109 96/116/111
f 69/91/87 68/107/102 88/115/110 89/117/112
f 61/93/89 62/104/99 82/118/113 81/119/114
f 77/68/66 76/67/65 96/116/111 97/120/115
f 70/92/88 69/91/87 89/117/112 90/121/104
f 63/94/90 61/93/89 81/119/114 83/122/116
f 78/95/91 77/68/66 97/120/115 98/123/117
f 71/97/92 70/96/88 90/109/104 91/108/103
f 64/98/93 63/94/90 83/122/116 84/124/118
f 79/99/94 78/95/91 98/123/117 99/125/119
f 72/100/95 71/97/92 91/108/103 92/126/120
f 65/101/96 64/98/93 84/124/118 85/127/121
f 80/102/97 79/99/94 99/125/119 100/128/122
f 73/88/84 72/100/95 92/126/120 93/89/85
f 66/103/98 65/101/96 85/127/121 86/112/107
f 62/104/99 80/102/97 100/128/122 82/118/113
f 101/129/123 102/130/124 120/131/125 119/132/126 118/133/127 117/134/128 116/135/129 115/136/130 114/137/131 113/138/132 112/139/133 111/140/106 110/141/105 109/142/134 108/143/135 107/144/136 106/145/137 105/146/138 104/147/139 103/148/140
f 84/124/118 83/122/116 103/149/140 104/150/139
f 99/125/119 98/123/117 118/151/127 119/152/126
f 92/126/120 91/108/103 111/111/106 112/153/133
f 85/127/121 84/124/118 104/150/139 105/154/138
f 100/128/122 99/125/119 119/152/126 120/155/125
f 93/89/85 92/126/120 112/153/133 113/156/132
f 86/112/107 85/127/121 105/154/138 106/157/137
f 82/118/113 100/128/122 120/155/125 102/158/124
f 94/90/86 93/89/85 113/156/132 114/159/131
f 87/113/108 86/112/107 106/157/137 107/160/136
f 95/114/109 94/90/86 114/159/131 115/161/130
f 88/115/110 87/113/108 107/160/136 108/162/135
f 96/116/111 95/114/109 115/161/130 116/163/129
f 89/117/112 88/115/110 108/162/135 109/164/134
f 81/119/114 82/118/113 102/158/124 101/165/123
f 97/120/115 96/116/111 116/163/129 117/166/128
f 90/121/104 89/117/112 109/164/134 110/167/105
f 83/122/116 81/119/114 101/165/123 103/149/140
f 98/123/117 97/120/115 117/166/128 118/151/127
f 39/168/62 140/44/42 121/1/1 1/169/43
f 37/170/61 139/40/38 140/44/42 39/168/62
f 35/171/60 138/38/36 139/40/38 37/170/61
f 33/172/59 137/36/34 138/38/36 35/171/60
f 31/173/58 136/34/32 137/36/34 33/172/59
f 29/174/57 135/32/30 136/34/32 31/173/58
f 27/175/56 134/30/28 135/32/30 29/174/57
f 25/176/55 133/28/26 134/30/28 27/175/56
f 23/177/54 132/26/24 133/28/26 25/176/55
f 21/178/53 131/23/22 132/26/24 23/177/54
f 19/179/52 130/20/20 131/22/22 21/180/53
f 17/181/51 129/18/18 130/20/20 19/179/52
f 15/182/50 128/16/16 129/18/18 17/181/51
f 13/183/49 127/14/14 128/16/16 15/182/50
f 11/184/48 126/12/12 127/14/14 13/183/49
f 9/185/47 125/10/10 126/12/12 11/184/48
f 7/186/46 124/8/8 125/10/10 9/185/47
f 5/187/45 123/6/6 124/8/8 7/186/46
f 3/188/44 122/4/4 123/6/6 5/187/45
f 1/169/43 121/1/1 122/4/4 3/188/44
