%YAML 1.1
%TAG !u! tag:unity3d.com,2011:
--- !u!1001 &2825151824248669956
PrefabInstance:
  m_ObjectHideFlags: 0
  serializedVersion: 2
  m_Modification:
    m_TransformParent: {fileID: 8183039078412634518}
    m_Modifications:
    - target: {fileID: 5821739913887751867, guid: d5a8c181b17d000418fb9cbc926a0209, type: 3}
      propertyPath: m_RootOrder
      value: 0
      objectReference: {fileID: 0}
    - target: {fileID: 5821739913887751867, guid: d5a8c181b17d000418fb9cbc926a0209, type: 3}
      propertyPath: m_LocalScale.x
      value: 0.16629438
      objectReference: {fileID: 0}
    - target: {fileID: 5821739913887751867, guid: d5a8c181b17d000418fb9cbc926a0209, type: 3}
      propertyPath: m_LocalScale.z
      value: 0.32132027
      objectReference: {fileID: 0}
    - target: {fileID: 5821739913887751867, guid: d5a8c181b17d000418fb9cbc926a0209, type: 3}
      propertyPath: m_LocalPosition.x
      value: 0.22948626
      objectReference: {fileID: 0}
    - target: {fileID: 5821739913887751867, guid: d5a8c181b17d000418fb9cbc926a0209, type: 3}
      propertyPath: m_LocalPosition.y
      value: 0.50219995
      objectReference: {fileID: 0}
    - target: {fileID: 5821739913887751867, guid: d5a8c181b17d000418fb9cbc926a0209, type: 3}
      propertyPath: m_LocalPosition.z
      value: -0.006422875
      objectReference: {fileID: 0}
    - target: {fileID: 5821739913887751867, guid: d5a8c181b17d000418fb9cbc926a0209, type: 3}
      propertyPath: m_LocalRotation.w
      value: 0
      objectReference: {fileID: 0}
    - target: {fileID: 5821739913887751867, guid: d5a8c181b17d000418fb9cbc926a0209, type: 3}
      propertyPath: m_LocalRotation.x
      value: -0
      objectReference: {fileID: 0}
    - target: {fileID: 5821739913887751867, guid: d5a8c181b17d000418fb9cbc926a0209, type: 3}
      propertyPath: m_LocalRotation.y
      value: 1
      objectReference: {fileID: 0}
    - target: {fileID: 5821739913887751867, guid: d5a8c181b17d000418fb9cbc926a0209, type: 3}
      propertyPath: m_LocalRotation.z
      value: -0
      objectReference: {fileID: 0}
    - target: {fileID: 5821739913887751867, guid: d5a8c181b17d000418fb9cbc926a0209, type: 3}
      propertyPath: m_LocalEulerAnglesHint.x
      value: 0
      objectReference: {fileID: 0}
    - target: {fileID: 5821739913887751867, guid: d5a8c181b17d000418fb9cbc926a0209, type: 3}
      propertyPath: m_LocalEulerAnglesHint.y
      value: 180
      objectReference: {fileID: 0}
    - target: {fileID: 5821739913887751867, guid: d5a8c181b17d000418fb9cbc926a0209, type: 3}
      propertyPath: m_LocalEulerAnglesHint.z
      value: 0
      objectReference: {fileID: 0}
    - target: {fileID: 6593596649125069825, guid: d5a8c181b17d000418fb9cbc926a0209, type: 3}
      propertyPath: m_Name
      value: Play
      objectReference: {fileID: 0}
    m_RemovedComponents: []
  m_SourcePrefab: {fileID: 100100000, guid: d5a8c181b17d000418fb9cbc926a0209, type: 3}
--- !u!1001 &8143577833368607399
PrefabInstance:
  m_ObjectHideFlags: 0
  serializedVersion: 2
  m_Modification:
    m_TransformParent: {fileID: 8183039078412634518}
    m_Modifications:
    - target: {fileID: 2340834160829904245, guid: 2fe39d7430f07f4419f855cdbbe9bf05, type: 3}
      propertyPath: m_Name
      value: Subtitle
      objectReference: {fileID: 0}
    - target: {fileID: 3114099404507574223, guid: 2fe39d7430f07f4419f855cdbbe9bf05, type: 3}
      propertyPath: m_RootOrder
      value: 1
      objectReference: {fileID: 0}
    - target: {fileID: 3114099404507574223, guid: 2fe39d7430f07f4419f855cdbbe9bf05, type: 3}
      propertyPath: m_LocalScale.x
      value: 0.16629438
      objectReference: {fileID: 0}
    - target: {fileID: 3114099404507574223, guid: 2fe39d7430f07f4419f855cdbbe9bf05, type: 3}
      propertyPath: m_LocalScale.z
      value: 0.32132027
      objectReference: {fileID: 0}
    - target: {fileID: 3114099404507574223, guid: 2fe39d7430f07f4419f855cdbbe9bf05, type: 3}
      propertyPath: m_LocalPosition.x
      value: -0.22806965
      objectReference: {fileID: 0}
    - target: {fileID: 3114099404507574223, guid: 2fe39d7430f07f4419f855cdbbe9bf05, type: 3}
      propertyPath: m_LocalPosition.y
      value: 0.50219995
      objectReference: {fileID: 0}
    - target: {fileID: 3114099404507574223, guid: 2fe39d7430f07f4419f855cdbbe9bf05, type: 3}
      propertyPath: m_LocalPosition.z
      value: -0.006422875
      objectReference: {fileID: 0}
    - target: {fileID: 3114099404507574223, guid: 2fe39d7430f07f4419f855cdbbe9bf05, type: 3}
      propertyPath: m_LocalRotation.w
      value: 0
      objectReference: {fileID: 0}
    - target: {fileID: 3114099404507574223, guid: 2fe39d7430f07f4419f855cdbbe9bf05, type: 3}
      propertyPath: m_LocalRotation.x
      value: -0
      objectReference: {fileID: 0}
    - target: {fileID: 3114099404507574223, guid: 2fe39d7430f07f4419f855cdbbe9bf05, type: 3}
      propertyPath: m_LocalRotation.y
      value: 1
      objectReference: {fileID: 0}
    - target: {fileID: 3114099404507574223, guid: 2fe39d7430f07f4419f855cdbbe9bf05, type: 3}
      propertyPath: m_LocalRotation.z
      value: -0
      objectReference: {fileID: 0}
    - target: {fileID: 3114099404507574223, guid: 2fe39d7430f07f4419f855cdbbe9bf05, type: 3}
      propertyPath: m_LocalEulerAnglesHint.x
      value: 0
      objectReference: {fileID: 0}
    - target: {fileID: 3114099404507574223, guid: 2fe39d7430f07f4419f855cdbbe9bf05, type: 3}
      propertyPath: m_LocalEulerAnglesHint.y
      value: 180
      objectReference: {fileID: 0}
    - target: {fileID: 3114099404507574223, guid: 2fe39d7430f07f4419f855cdbbe9bf05, type: 3}
      propertyPath: m_LocalEulerAnglesHint.z
      value: 0
      objectReference: {fileID: 0}
    m_RemovedComponents: []
  m_SourcePrefab: {fileID: 100100000, guid: 2fe39d7430f07f4419f855cdbbe9bf05, type: 3}
--- !u!1001 &8414342151749458609
PrefabInstance:
  m_ObjectHideFlags: 0
  serializedVersion: 2
  m_Modification:
    m_TransformParent: {fileID: 0}
    m_Modifications:
    - target: {fileID: 381188813121360679, guid: 50728dec93ad3934dbc7c7b5e14bd019, type: 3}
      propertyPath: m_RootOrder
      value: 0
      objectReference: {fileID: 0}
    - target: {fileID: 381188813121360679, guid: 50728dec93ad3934dbc7c7b5e14bd019, type: 3}
      propertyPath: m_LocalScale.x
      value: 0.3006716
      objectReference: {fileID: 0}
    - target: {fileID: 381188813121360679, guid: 50728dec93ad3934dbc7c7b5e14bd019, type: 3}
      propertyPath: m_LocalScale.z
      value: 0.155608
      objectReference: {fileID: 0}
    - target: {fileID: 381188813121360679, guid: 50728dec93ad3934dbc7c7b5e14bd019, type: 3}
      propertyPath: m_LocalPosition.x
      value: 1.8
      objectReference: {fileID: 0}
    - target: {fileID: 381188813121360679, guid: 50728dec93ad3934dbc7c7b5e14bd019, type: 3}
      propertyPath: m_LocalPosition.y
      value: 0.542
      objectReference: {fileID: 0}
    - target: {fileID: 381188813121360679, guid: 50728dec93ad3934dbc7c7b5e14bd019, type: 3}
      propertyPath: m_LocalPosition.z
      value: -9.918
      objectReference: {fileID: 0}
    - target: {fileID: 381188813121360679, guid: 50728dec93ad3934dbc7c7b5e14bd019, type: 3}
      propertyPath: m_LocalRotation.w
      value: 1
      objectReference: {fileID: 0}
    - target: {fileID: 381188813121360679, guid: 50728dec93ad3934dbc7c7b5e14bd019, type: 3}
      propertyPath: m_LocalRotation.x
      value: -0
      objectReference: {fileID: 0}
    - target: {fileID: 381188813121360679, guid: 50728dec93ad3934dbc7c7b5e14bd019, type: 3}
      propertyPath: m_LocalRotation.y
      value: -0
      objectReference: {fileID: 0}
    - target: {fileID: 381188813121360679, guid: 50728dec93ad3934dbc7c7b5e14bd019, type: 3}
      propertyPath: m_LocalRotation.z
      value: -0
      objectReference: {fileID: 0}
    - target: {fileID: 381188813121360679, guid: 50728dec93ad3934dbc7c7b5e14bd019, type: 3}
      propertyPath: m_LocalEulerAnglesHint.x
      value: 0
      objectReference: {fileID: 0}
    - target: {fileID: 381188813121360679, guid: 50728dec93ad3934dbc7c7b5e14bd019, type: 3}
      propertyPath: m_LocalEulerAnglesHint.y
      value: 0
      objectReference: {fileID: 0}
    - target: {fileID: 381188813121360679, guid: 50728dec93ad3934dbc7c7b5e14bd019, type: 3}
      propertyPath: m_LocalEulerAnglesHint.z
      value: 0
      objectReference: {fileID: 0}
    - target: {fileID: 381188813121360683, guid: 50728dec93ad3934dbc7c7b5e14bd019, type: 3}
      propertyPath: m_Name
      value: MiniPlinthButtons
      objectReference: {fileID: 0}
    m_RemovedComponents: []
  m_SourcePrefab: {fileID: 100100000, guid: 50728dec93ad3934dbc7c7b5e14bd019, type: 3}
--- !u!4 &8183039078412634518 stripped
Transform:
  m_CorrespondingSourceObject: {fileID: 381188813121360679, guid: 50728dec93ad3934dbc7c7b5e14bd019, type: 3}
  m_PrefabInstance: {fileID: 8414342151749458609}
  m_PrefabAsset: {fileID: 0}
